0
0
0
0
0
0
0
0
1024
1024
1024
1024
1024
1024
1024
3080
3080
3080
3080
9236
9236
9236
9236
9236
13396
13396
13396
13396
18516
18516
18516
18516
18516
24756
24756
24756
24756
24756
24756
24756
31952
31952
31952
31952
40208
40208
40208
40208
40208
40208
49514
49514
49514
49514
49514
59794
59794
59794
59794
59794
59794
82564
82564
82564
82564
82564
94900
94900
94900
94952
121602
121602
121602
121602
121602
136050
136050
136050
136050
136050
151620
151620
151620
151620
151620
151620
151620
168516
168516
168516
168516
168516
168516
168516
185924
185924
185924
185924
185924
185924
204356
204356
204356
223964
223964
223964
244764
244764
244764
244764
244764
244764
244764
244764
266436
266436
266436
266436
289052
289052
289052
312696
312696
312696
337464
337464
337464
337464
337464
337464
363264
363264
363264
363264
390070
390070
390070
390070
390070
390070
417826
417826
417826
417826
417826
475170
475170
475170
475170
475170
504982
504982
504982
504982
535822
535822
535822
535822
535822
567814
567814
567814
567814
567814
600838
600838
600838
600838
600838
600838
634762
634762
634762
634762
634762
669850
669850
669850
669850
669850
669850
706040
706040
706040
706040
706040
706040
779768
779768
779768
779768
817804
817804
817804
857020
857020
857020
857020
897112
897112
897112
897112
897112
938392
938392
938392
938392
938392
981032
981032
981032
981032
981032
1024376
1024376
1024376
1024376
1024376
1068580
1068580
1068580
1068580
1068580
1114340
1114340
1114340
1114340
1114340
1206680
1206680
1206680
1206680
1206680
1395280
1395280
1395280
1395280
1395280
1395280
1395280
1395280
1443784
1443784
1443784
1443784
1492936
1492936
1492936
1543112
1543112
1543112
1594512
1594512
1594512
1594512
1594512
1594512
1594512
1647144
1647144
1647144
1700392
1700392
1700392
1700392
1700392
1782436
1782436
1782436
1782436
1782436
1782436
1893892
1893892
1893892
1893892
1893892
1951092
1951092
1951092
1951092
2008660
2008660
2008660
2008660
2067598
2067598
2067598
2067598
2067598
2067598
2127918
2127918
2127918
2127918
2188570
2188570
2188570
2188570
2188570
2250250
2250250
2250250
2250250
2250250
2375422
2375422
2375422
2375422
2375422
2375422
2375422
2375422
2375422
2375422
2375422
2375422
2375422
2375422
2375422
2375422
2375422
2375422
2375422
2375422
2375546
2375546
2375546
2375546
2375546
2375608
2375856
2375856
2376104
2376104
2376104
2376104
2376104
2376104
2376352
2376352
2376352
2376352
2376352
2376352
2376352
2376352
2376352
2376352
2376352
2376352
2376352
2376848
2376848
2376848
2377840
2378088
2378088
2378088
2378088
2379204
2379204
2379700
2379700
16376733008528
16376733008528
16376733008528
16376733008528
16376733008528
16376733008528
16376733008528
16376733008528
16376733008528
16376733008528
16376733008528
16376733008528
16376733008528
16376733008528
16376733008528
16376733008528
16376733008528
16376733008528
16376733008528
16376733009032
16376733009158
16376733009410
16376733009536
16376733010544
16376733010544
16376733011552
16376733011552
16376733011552
16376733011552
16376733011552
16376733011552
16376733011552
16376733011552
16376733011552
16376733011552
16376733011804
16376733011804
16376733011804
16376733011804
16376733011804
16376733011804
16376733011804
16376733012182
16376733012182
16376733012182
16376733012434
16376733012686
16376733012686
16376733012812
16376733012938
16376733013190
16376733013190
16376733013190
29770595773790
29770595773790
29770595773790
29770595773790
29770595773790
29770595773790
29770595773790
29770595773790
29770595773790
29770595773790
29770595773790
29770595773790
29770595773790
29770595773790
29770595773790
29770595773790
29770595773790
29770595774046
29770595774174
29770595774174
29770595774302
29770595774302
29770595774302
29770595774558
29770595774686
29770595774686
29770595776990
29770595777118
29770595777118
29770595777118
29770595777118
29770595777118
29770595777118
29770595777118
29770595777118
29770595777118
29770595777118
29770595777246
29770595777502
29770595777502
29770595777502
29770595777502
29770595777630
29770595777630
29770595777630
29770595777630
29770595779678
29770595779678
29770595779678
29770595779678
29770595780190
29770595780446
29770595780446
29770595780446
29770595780446
44201686206942
44201686206942
44201686206942
44201686206942
44201686206942
44201686206942
44201686206942
44201686206942
44201686206942
44201686206942
44201686206942
44201686206942
44201686206942
44201686206942
44201686206942
44201686206942
44201686206942
44201686206942
44201686206942
44201686207202
44201686207332
44201686207332
44201686207592
44201686207592
44201686208112
44201686208372
44201686208372
44201686208372
44201686208892
44201686208892
44201686209022
44201686209022
44201686209022
44201686209022
44201686209022
44201686209282
44201686209282
44201686209282
44201686209282
44201686209282
44201686209282
44201686209282
44201686209282
44201686209282
44201686209802
44201686209932
44201686210062
44201686210062
44201686210062
44201686210322
44201686210842
44201686210842
44201686211622
44201686211622
44201686212142
44201686212142
44201686212662
44201686212662
44201686212662
63673998482332
63673998482332
63673998482332
63673998482332
63673998482332
63673998482332
63673998482332
63673998482332
63673998482332
63673998482332
63673998482332
63673998482332
63673998482332
63673998482332
63673998482332
63673998482332
63673998482332
63673998482332
63673998482332
63673998482332
63673998482332
63673998482332
63673998482332
63673998482464
63673998482728
63673998482992
63673998483520
63673998483520
63673998483520
63673998484576
63673998484840
63673998484840
63673998484840
63673998484840
63673998484840
63673998484840
63673998484840
63673998484840
63673998484840
63673998484840
63673998484840
63673998484840
63673998484840
63673998484840
63673998484972
63673998484972
63673998484972
63673998485236
63673998485236
63673998485764
63673998487084
63673998487348
63673998487348
63673998487480
63673998487480
63673998487744
63673998487744
63673998487744
93721590645316
93721590645316
93721590645316
93721590645316
93721590645316
93721590645316
93721590645316
93721590645316
93721590645316
93721590645316
93721590645316
93721590645316
93721590645316
93721590645316
93721590645316
93721590645316
93721590645316
93721590645316
93721590645316
93721590645316
93721590645316
93721590645316
93721590645316
93721590645450
93721590645718
93721590645986
93721590646254
93721590646254
93721590650542
93721590650542
93721590650542
93721590650542
93721590650542
93721590650542
93721590650810
93721590650810
93721590650810
93721590650810
93721590650810
93721590650810
93721590650944
93721590651078
93721590651078
93721590651078
93721590651078
93721590651078
93721590651078
93721590651078
93721590651212
93721590651480
93721590651480
93721590651748
93721590651748
93721590651748
93721590651748
93721590652016
93721590653222
93721590653490
93721590653490
93721590653758
131274672363110
131274672363110
131274672363110
131274672363110
131274672363110
131274672363110
131274672363110
131274672363110
131274672363110
131274672363110
131274672363110
131274672363110
131274672363110
131274672363110
131274672363110
131274672363110
131274672363110
131274672363110
131274672363110
131274672363110
131274672363110
131274672363246
131274672363246
131274672364334
131274672364470
131274672364470
131274672364606
131274672364742
131274672365014
131274672365558
131274672365558
131274672365558
131274672365558
131274672365558
131274672365626
131274672365762
131274672365762
131274672366034
131274672366034
131274672366170
131274672366170
131274672366170
131274672366170
131274672366170
131274672366170
131274672366306
131274672366306
131274672366306
131274672366578
151207615698698
151207615698698
151207615698698
151207615698698
151207615698698
151207615698698
151207615698698
151207615698698
151207615698698
151207615698698
151207615698698
151207615698698
151207615698698
151207615698698
151207615698698
151207615698698
151207615698698
151207615698836
151207615698836
151207615698836
151207615699388
151207615699388
151207615699388
151207615699664
151207615699802
151207615699940
151207615700768
151207615700906
151207615701182
151207615701182
151207615701320
151207615701320
151207615701320
151207615701320
151207615701320
151207615701320
151207615701458
151207615701458
151207615701458
151207615701458
151207615701458
151207615701458
151207615701458
151207615701458
151207615701458
151207615701458
151207615701458
151207615701458
151207615701458
151207615704218
151207615705322
151207615705322
151207615705322
151207615705322
151207615706150
151207615706564
175656717777896
175656717777896
175656717778036
175656717778036
175656717778036
175656717778036
175656717778036
175656717778106
175656717778106
175656717778106
175656717778106
175656717778106
175656717778106
175656717778106
175656717778106
175656717778106
175656717778106
175656717778106
175656717778246
175656717778246
175656717778526
175656717778526
175656717779086
175656717779086
175656717779086
175656717779366
175656717780206
175656717780206
175656717780206
175656717780206
175656717780206
175656717780206
175656717780206
175656717780206
175656717780206
175656717780486
175656717780486
175656717780486
175656717780486
175656717780486
175656717780486
175656717781326
175656717781326
175656717781326
175656717781466
175656717781466
175656717781466
175656717781466
175656717781466
175656717782026
175656717782026
175656717782026
201437259851126
201437259851126
201437259851126
201437259851126
201437259851126
201437259851126
201437259851126
201437259851126
201437259851126
201437259851126
201437259851126
201437259851126
201437259851126
201437259851126
201437259851126
201437259851126
201437259851126
201437259851126
201437259851126
201437259851126
201437259851410
201437259851694
201437259851694
201437259852262
201437259852262
201437259852830
201437259853114
201437259853114
201437259853114
201437259853398
201437259853398
201437259853398
201437259853398
201437259853398
201437259853398
201437259853398
201437259853398
201437259853398
201437259853398
201437259853398
201437259853398
201437259853398
201437259853966
201437259853966
201437259853966
201437259854250
201437259854250
201437259854250
201437259854250
224765374881798
224765374881798
224765374881798
224765374881798
224765374881798
224765374881798
224765374881798
224765374881798
224765374881942
224765374881942
224765374881942
224765374881942
224765374881942
224765374881942
224765374881942
224765374881942
224765374881942
224765374881942
224765374881942
224765374881942
224765374881942
224765374881942
224765374881942
224765374882086
224765374882374
224765374882662
224765374882806
224765374883094
224765374884822
224765374884822
224765374884822
224765374884822
224765374884822
224765374884822
224765374884822
224765374885110
224765374885110
224765374885110
224765374885254
224765374885398
224765374885398
224765374885398
224765374885398
224765374885398
224765374885686
224765374886262
224765374886262
224765374886262
224765374886550
224765374887126
224765374887126
224765374887126
224765374887414
224765374887414
224765374887702
224765374887702
224765374887702
224765374887702
248267435968422
248267435968422
248267435968422
248267435968422
248267435968422
248267435968422
248267435968422
248267435968422
248267435968422
248267435968422
248267435968422
248267435968422
248267435968422
248267435968422
248267435968422
248267435968422
248267435968422
248267435968422
248267435968422
248267435969006
248267435969152
248267435969152
248267435969152
248267435970904
248267435970904
248267435971196
248267435971196
248267435972364
248267435973532
248267435973532
248267435973532
248267435973824
248267435973824
248267435974408
248267435974554
248267435974554
248267435974554
248267435974554
248267435974554
248267435974554
248267435976890
248267435976890
248267435976890
248267435976890
248267435977036
248267435977036
248267435977036
248267435977182
248267435977182
248267435977182
248267435977182
248267435977182
248267435977474
248267435977474
248267435977474
248267435977474
248267435977766
253911128305312
253911128305312
253911128305386
253911128305386
253911128305386
253911128305386
253911128305386
253911128305386
253911128305386
253911128305386
253911128305386
253911128305386
253911128305460
253911128305460
253911128305460
253911128305460
253911128305460
253911128305460
253911128305460
253911128306348
253911128306348
253911128306348
253911128306348
253911128306496
253911128307680
253911128308272
253911128308272
253911128308272
253911128309456
253911128309456
