0
0
0
0
0
0
0
0
0
0
1028
1028
1028
1028
1028
3084
3084
3084
3084
3084
6180
6180
6180
10292
10292
10292
10292
10292
15422
15422
15422
15422
15422
21614
21614
21614
21614
21614
28782
28782
28814
37006
37006
37024
37024
46384
46384
46384
46384
46384
46384
46384
46384
56724
56724
56724
56724
56724
56724
68032
68032
68032
68032
80512
80512
80512
93850
93850
93850
93850
93850
108284
108284
108284
108284
123884
123884
123884
123884
123884
123884
123884
173356
173356
173356
173356
173356
173356
173356
173356
200216
200216
200216
200216
200216
218792
218792
218792
218792
238324
238324
238324
258884
258884
258884
258884
258884
258884
301976
301976
301976
301976
301976
324856
324856
324856
324856
324856
324856
324856
348454
348454
348454
373222
373222
373222
373222
373222
373222
398922
398922
398922
398922
452170
452170
452170
452170
452386
480034
480034
480034
480034
508986
508986
508986
508986
538740
538740
538740
538740
538740
538740
538740
569700
569700
569700
569700
569700
601692
601692
601692
601692
601692
601692
634716
634716
634716
634716
634716
668640
668640
668640
668640
703592
703592
703592
703592
703592
739572
739572
739572
739572
739572
739572
777588
777588
777588
777588
815624
815624
815624
815624
815624
815624
855980
855980
855980
855980
855980
897164
897164
897164
897164
897164
938124
938124
938124
938124
938124
938124
980436
980436
980436
980436
980436
980436
980436
1024368
1024368
1024368
1024368
1024368
1069088
1069088
1069088
1069088
1069088
1069088
1114320
1114320
1114320
1114320
1114320
1160850
1160850
1160850
1160850
1160850
1160850
1160850
1160850
1207954
1208142
1256364
1256364
1256364
1305516
1305614
1305614
1355790
1355790
1355790
1355790
1355790
1355790
1407190
1407190
1407190
1459618
1459618
1459618
1459618
1566322
1566322
1566322
1566322
1566322
1566322
1566322
1620806
1620806
1620806
1620806
1620806
1620806
1676534
1676534
1676534
1676534
1676534
1676534
1676534
1733294
1733294
1733294
1733294
1733294
1733294
1799150
1799150
1799150
1799150
1799150
1799150
1857746
1857746
1857746
1857746
1857746
1917138
1917138
1917138
1917138
1979206
1979206
1979206
1979206
1979206
1979206
1979446
2040886
2040886
2040886
2040886
2166302
2166302
2166302
2166302
2262154
2262154
2262154
2262154
2262154
2262154
2262154
2262154
2326666
2326666
2326666
2326666
2326666
2392458
2392458
2392458
2392458
2392458
2392458
2392458
2459278
2459278
2459278
2459278
2530294
2530294
2530294
2530294
2530294
2599036
2599036
2599036
2599036
2599036
2738300
2738300
2738300
2738300
2738300
2738300
2738438
2880854
2880854
2880854
2880854
2953654
2953938
2953938
3026642
3026642
3026642
3026642
3026642
3026642
3026642
3026642
3026642
3026642
3026642
3026642
3026642
3026642
3026642
3026642
3026642
3026642
3026642
3026642
3026642
3026642
3026930
3027074
3027074
3027074
3027074
3027074
3027650
3027650
3027650
3027794
3028082
3028082
3028082
3028082
3028082
3028082
3028082
3028082
3028082
3028082
3028082
3028658
3028946
3028946
3028946
3028946
3028946
3029090
3031394
3031682
3031682
3031682
3031682
19945831174610
19945831174610
19945831174610
19945831174610
19945831174610
19945831174610
19945831174610
19945831174610
19945831174610
19945831174610
19945831174610
19945831174610
19945831174610
19945831174610
19945831174610
19945831174610
19945831174902
19945831174902
19945831174902
19945831174902
19945831177238
19945831177238
19945831177530
19945831182202
19945831182202
19945831182202
19945831182202
19945831184538
19945831184538
19945831184538
19945831184538
19945831184538
19945831184538
19945831184538
19945831184538
19945831184538
19945831184538
19945831184538
19945831184538
19945831184538
19945831184538
19945831184538
19945831184538
19945831184538
19945831185706
19945831185852
19945831185852
19945831185998
19945831185998
19945831186582
19945831186874
19945831186874
41109284130920
41109284130920
41109284130920
41109284130920
41109284130920
41109284130920
41109284131068
41109284131068
41109284131068
41109284131068
41109284131068
41109284131068
41109284131068
41109284131068
41109284131068
41109284131068
41109284131068
41109284131068
41109284131068
41109284131364
41109284131364
41109284131364
41109284131512
41109284131512
41109284131956
41109284132104
41109284132696
41109284132696
41109284132844
41109284133732
41109284133732
41109284133880
41109284133880
41109284133880
41109284134176
41109284134176
41109284134176
41109284134176
41109284134176
41109284134176
41109284134176
41109284134176
41109284134176
41109284134176
41109284134176
41109284134176
41109284134176
41109284134176
41109284134176
41109284134176
41109284153120
41109284153120
41109284153120
41109284153712
41109284153712
41109284154304
41109284154304
41109284154304
41109284154600
41109284154600
41109284155192
41199914783472
41199914783472
41199914783472
41199914783472
41199914783472
41199914783472
41199914783472
41199914783472
41199914783472
41199914783472
41199914783472
41199914783472
41199914783472
41199914783472
41199914783472
41199914783472
41199914783472
41199914783472
41199914783472
41199914783472
41199914783772
41199914784072
41199914784072
41199914784372
41199914784372
41199914784372
41199914784372
41199914784972
41199914784972
41199914785272
41199914785872
41199914785872
41199914786772
41199914786772
41199914786772
41199914786772
41199914786772
41199914786772
41199914786772
41199914786772
41199914786772
41199914786772
41199914786772
41199914786772
41199914786772
41199914786772
41199914787072
41199914787072
41199914787372
41199914787372
41199914787672
41199914787672
41199914788272
41199914788572
41199914788722
41199914788722
41199914789022
41199914789322
60044084018622
60044084018622
60044084018622
60044084018622
60044084018622
60044084018622
60044084018622
60044084018622
60044084018622
60044084018622
60044084018622
60044084018622
60044084018622
60044084018622
60044084018622
60044084018622
60044084018622
60044084018622
60044084018622
60044084018622
60044084018774
60044084018774
60044084019078
60044084019078
60044084019078
60044084019382
60044084019382
60044084019686
60044084019990
60044084020294
60044084020294
60044084020598
60044084020598
60044084020750
60044084020750
60044084020750
60044084020750
60044084020750
60044084020750
60044084020750
60044084020750
60044084020750
60044084020902
60044084020902
60044084020902
60044084021054
60044084021510
60044084021510
60044084021510
60044084021510
60044084021510
60044084022118
60044084022878
60044084022878
60044084022878
60044084024094
60044084024094
60044084024702
60044084024702
60044084025310
60044084025310
83301331943334
83301331943334
83301331943334
83301331943334
83301331943334
83301331943334
83301331943334
83301331943334
83301331943334
83301331943334
83301331943334
83301331943334
83301331943334
83301331943334
83301331943334
83301331943334
83301331943334
83301331943334
83301331948262
83301331948262
83301331948570
83301331948878
83301331948878
83301331948878
83301331949186
83301331949186
83301331949802
83301331949802
83301331950264
83301331950264
83301331950264
83301331950264
83301331950264
83301331950264
83301331950418
83301331950418
83301331950572
83301331950572
83301331950726
83301331950726
83301331951034
83301331951188
83301331951342
83301331951342
83301331951342
83301331951342
83301331951342
83301331951650
83301331951650
83301331951650
83301331952112
83301331952266
83301331952266
83301331952266
83301331953498
83301331953498
118770649351936
118770649351936
118770649351936
118770649351936
118770649352092
118770649352092
118770649352092
118770649352092
118770649352092
118770649352092
118770649352092
118770649352248
118770649352248
118770649352248
118770649352248
118770649352248
118770649352248
118770649352404
118770649352404
118770649352404
118770649352404
118770649352404
118770649353028
118770649353028
118770649353028
118770649353340
118770649353340
118770649353496
118770649353496
118770649353496
118770649353496
118770649353496
118770649353496
118770649353496
118770649353496
118770649353496
118770649353496
118770649353496
118770649353496
118770649353496
118770649353496
118770649353964
118770649353964
118770649353964
118770649354900
118770649355212
118770649355212
118770649355212
118770649355212
118770649355836
118770649355836
118770649356148
118770649356772
118770649357396
118770649357396
118770649358020
118770649358020
118770649358332
147916399700404
147916399700404
147916399700404
147916399700404
147916399700404
147916399700404
147916399700404
147916399700404
147916399700404
147916399700404
147916399700404
147916399700404
147916399700404
147916399700404
147916399700404
147916399700404
147916399700404
147916399700404
147916399700404
147916399700404
147916399700404
147916399700404
147916399701352
147916399701352
147916399701352
147916399701510
147916399702142
147916399702142
147916399702774
147916399702774
147916399702932
147916399702932
147916399702932
147916399702932
147916399702932
147916399702932
147916399702932
147916399703011
147916399703011
147916399703011
147916399703011
147916399703011
147916399703011
147916399703011
147916399703011
147916399703011
147916399704275
147916399704275
147916399704591
147916399704907
147916399704907
147916399704907
147916399704907
147916399705065
147916399705223
147916399705223
147916399710279
147916399710279
147916399710279
177096407714591
177096407714591
177096407714591
177096407714591
177096407714591
177096407714751
177096407714751
177096407714751
177096407714751
177096407714751
177096407714751
177096407714751
177096407714751
177096407714751
177096407714751
177096407714751
177096407714751
177096407714751
177096407715071
177096407715711
177096407716031
177096407716031
177096407716031
177096407716031
177096407716031
177096407716031
177096407716031
177096407716671
177096407716671
177096407717311
177096407717311
177096407717631
177096407717631
177096407717631
177096407717631
177096407717631
177096407717631
177096407717631
177096407717631
177096407717631
177096407717631
177096407717951
177096407717951
177096407717951
177096407717951
177096407717951
177096407717951
177096407718271
177096407718271
177096407718271
177096407718271
177096407718271
218070401036831
218070401036831
218070401036831
218070401036831
218070401036831
218070401036831
218070401036831
218070401036831
218070401036831
218070401036831
218070401036831
218070401036831
218070401036831
218070401036831
218070401036831
218070401036831
218070401036831
218070401036831
218070401036831
218070401036831
218070401036831
218070401036831
218070401036993
218070401039585
218070401039585
218070401039585
218070401039585
218070401040881
218070401040881
218070401040881
218070401040881
218070401040881
218070401041043
218070401041043
218070401041043
218070401041205
218070401041205
218070401041205
218070401041205
218070401041205
218070401041205
218070401041205
218070401041367
218070401041367
218070401041367
218070401041529
218070401041529
218070401041853
218070401041853
218070401042015
218070401042015
246075737302277
246075737302277
246075737302277
246075737302277
246075737302277
246075737302277
246075737302277
246075737302277
246075737302277
246075737302277
246075737302277
246075737302277
246075737302277
246075737302277
246075737302277
246075737302277
246075737302441
246075737302441
246075737302605
246075737302605
246075737303917
246075737303917
246075737304245
246075737304245
246075737304901
246075737304901
246075737305065
246075737305557
246075737305885
246075737306541
246075737306541
246075737306869
246075737306869
246075737307033
246075737307033
246075737307033
246075737307033
246075737307033
246075737307033
246075737307033
246075737307033
246075737307033
246075737307033
246075737307033
246075737307361
246075737307361
246075737307361
246075737307361
246075737307361
246075737307361
246075737307361
246075737307361
246075737308345
246075737308345
246075737309001
246075737309657
246075737309657
246075737309657
278476980050529
278476980050529
278476980050529
278476980050529
278476980050529
278476980050529
278476980050529
278476980050529
278476980050529
278476980050529
278476980050529
278476980050529
278476980050529
