10 16 4 10 1000
3 11 0 0 
0 0 0 1 
0 0 0 0 
11 0 0 0 
END
1 0 11 0 
0 0 4 0 
0 0 0 3 
0 0 0 0 
END
0 0 0 0 
0 0 4 0 
0 0 5 0 
2 11 0 0 
END
0 0 0 0 
4 3 11 0 
0 0 0 0 
11 0 0 0 
END
0 0 0 0 
0 11 0 0 
5 5 5 0 
0 0 0 0 
END
0 0 1 0 
0 4 0 0 
0 5 0 0 
0 0 0 0 
END
0 0 1 0 
0 1 0 0 
0 11 0 0 
0 0 0 11 
END
0 5 0 0 
0 0 0 0 
11 0 0 0 
0 0 0 1 
END
0 0 0 0 
5 4 0 0 
0 0 0 0 
4 0 0 0 
END
0 11 0 0 
0 0 0 0 
0 0 4 0 
11 0 5 0 
END
0 0 2 0 
0 0 0 0 
11 5 0 11 
0 0 0 0 
END
0 0 4 0 
0 0 4 5 
0 0 0 0 
3 0 0 0 
END
0 0 0 4 
0 0 0 0 
0 0 1 4 
0 11 0 0 
END
0 0 4 4 
11 5 0 0 
0 0 0 0 
0 0 0 0 
END
0 11 1 0 
0 0 0 0 
0 0 0 0 
5 0 0 2 
END
0 0 0 0 
0 0 0 4 
0 0 0 0 
4 0 11 11 
END
0 0 5 0 
0 0 3 0 
0 5 0 5 
0 0 0 0 
END
0 0 0 0 
0 11 11 0 
11 0 4 0 
0 0 0 0 
END
0 0 0 11 
0 0 1 5 
0 0 0 0 
4 0 0 0 
END
2 2 0 0 
0 0 0 0 
0 0 0 0 
1 0 0 3 
END
11 11 0 0 
0 0 0 0 
0 0 0 0 
11 0 11 0 
END
0 0 0 3 
11 0 0 0 
0 0 0 0 
4 0 4 0 
END
0 0 0 11 
0 0 0 4 
0 0 5 0 
0 0 3 0 
END
0 0 0 0 
11 0 0 0 
4 0 0 1 
0 0 0 0 
END
4 0 0 0 
0 0 0 0 
0 0 3 0 
0 5 0 1 
END
1 0 0 0 
0 0 0 0 
0 2 0 0 
5 5 0 0 
END
11 0 11 0 
0 0 0 0 
0 0 11 2 
0 0 0 0 
END
11 0 0 5 
2 0 0 1 
0 0 0 0 
0 0 0 0 
END
11 0 0 4 
0 0 0 0 
0 0 0 0 
0 1 0 5 
END
0 0 11 0 
4 0 4 0 
0 0 0 0 
0 0 0 0 
END
0 2 0 0 
5 0 5 0 
0 0 0 0 
0 0 2 0 
END
4 0 0 0 
5 11 11 0 
0 0 0 0 
0 0 0 0 
END
0 0 0 0 
0 2 11 11 
0 0 0 0 
11 0 0 0 
END
0 0 0 0 
0 0 5 0 
0 0 0 0 
2 11 2 0 
END
0 0 0 0 
0 0 0 0 
0 3 11 0 
0 2 5 0 
END
0 0 0 11 
0 0 0 0 
0 0 2 11 
0 0 0 11 
END
0 4 0 0 
11 0 4 0 
4 0 0 0 
0 0 0 0 
END
0 4 0 0 
4 0 0 5 
0 0 0 0 
3 0 0 0 
END
0 0 2 0 
0 0 0 11 
0 0 1 0 
0 0 0 4 
END
0 0 11 0 
0 0 0 0 
0 0 0 3 
0 11 0 0 
END
3 4 0 3 
0 0 0 0 
0 0 0 0 
0 0 0 2 
END
0 4 0 0 
0 3 0 11 
0 0 11 0 
0 0 0 0 
END
0 0 0 0 
5 0 0 0 
11 0 4 0 
0 3 0 0 
END
3 0 11 0 
0 0 0 0 
5 0 0 0 
0 4 0 0 
END
0 0 5 0 
0 0 0 0 
0 0 0 5 
0 5 0 1 
END
0 0 11 0 
0 0 11 0 
0 0 0 0 
4 0 0 4 
END
0 0 0 0 
0 0 0 5 
4 0 4 0 
0 0 3 0 
END
0 0 0 2 
5 0 0 0 
0 0 4 3 
0 0 0 0 
END
0 0 0 5 
5 0 0 0 
0 0 0 11 
4 0 0 0 
END
0 4 0 0 
0 0 2 3 
0 2 0 0 
0 0 0 0 
END
0 0 2 0 
0 0 0 4 
4 0 0 0 
0 0 0 0 
END
5 0 0 0 
2 0 4 0 
0 0 0 0 
5 0 0 0 
END
0 0 0 0 
11 4 0 0 
3 0 0 0 
0 0 1 0 
END
0 0 2 0 
0 11 4 0 
11 0 0 0 
0 0 0 0 
END
0 4 0 0 
0 0 4 0 
0 0 0 3 
0 11 0 0 
END
11 0 0 0 
0 4 0 0 
0 0 0 0 
0 0 2 1 
END
5 0 0 2 
0 11 0 0 
1 0 0 0 
0 0 0 0 
END
0 0 11 0 
11 11 0 0 
0 0 0 0 
0 0 0 0 
END
0 0 0 0 
1 0 0 11 
11 0 0 0 
0 4 0 0 
END
0 0 0 0 
0 0 0 4 
0 0 0 2 
0 0 5 11 
END
0 0 0 11 
0 0 2 11 
0 0 0 0 
0 2 0 0 
END
0 0 0 0 
0 0 0 2 
0 5 0 0 
0 1 4 0 
END
5 0 0 0 
0 0 4 0 
0 0 3 1 
0 0 0 0 
END
0 0 11 4 
0 0 0 11 
0 0 0 0 
0 0 4 0 
END
5 0 11 11 
0 0 0 0 
0 0 0 0 
11 0 0 0 
END
0 5 0 0 
0 0 0 2 
4 0 0 0 
0 0 0 11 
END
4 11 0 0 
0 0 3 0 
0 0 0 0 
1 0 0 0 
END
0 5 0 0 
2 0 0 0 
0 0 0 11 
0 0 3 0 
END
0 0 0 3 
0 0 0 4 
0 5 0 0 
11 0 0 0 
END
0 3 1 3 
0 0 0 0 
0 0 0 0 
1 0 0 0 
END
4 0 0 0 
0 2 0 0 
0 0 0 5 
0 0 0 5 
END
5 0 0 0 
0 5 0 0 
0 3 0 0 
0 0 5 0 
END
0 0 0 0 
1 0 0 0 
4 0 0 0 
4 4 0 0 
END
0 0 0 0 
0 0 5 0 
0 0 2 0 
0 4 0 0 
END
0 0 5 0 
0 0 0 0 
0 0 0 5 
0 0 0 2 
END
2 0 4 5 
0 0 0 0 
0 0 0 0 
0 0 0 1 
END
0 0 0 0 
0 0 0 0 
4 0 0 4 
0 4 5 0 
END
0 0 0 3 
0 0 0 5 
0 0 0 0 
0 0 3 11 
END
0 4 4 0 
0 5 0 0 
5 0 0 0 
0 0 0 0 
END
1 0 0 0 
0 0 0 0 
0 0 1 0 
0 2 0 0 
END
0 0 11 0 
0 0 0 0 
2 0 5 0 
0 0 3 0 
END
0 0 0 0 
4 0 0 0 
0 0 5 5 
0 0 0 4 
END
3 0 0 0 
4 0 0 0 
0 11 0 0 
0 11 0 0 
END
0 0 4 0 
0 2 11 0 
0 0 2 0 
0 0 0 0 
END
0 0 0 0 
11 0 5 0 
0 5 0 0 
11 0 0 0 
END
0 0 3 0 
0 0 11 0 
0 4 0 0 
0 0 0 11 
END
3 0 0 0 
0 4 0 0 
0 0 3 0 
0 0 0 11 
END
2 0 0 0 
0 0 0 0 
0 0 0 0 
0 5 0 1 
END
0 1 0 0 
0 0 0 0 
2 0 0 0 
3 3 0 0 
END
0 0 11 0 
0 0 0 0 
0 0 0 0 
3 0 0 4 
END
1 0 0 0 
0 0 0 11 
0 0 5 0 
0 0 0 0 
END
11 0 3 0 
0 0 0 0 
0 0 0 0 
0 0 4 4 
END
0 0 0 0 
1 0 0 1 
0 0 5 0 
0 4 0 0 
END
0 0 0 2 
0 5 0 0 
0 0 3 0 
0 5 0 0 
END
0 0 11 0 
0 0 0 0 
0 0 2 0 
0 0 11 5 
END
0 0 0 11 
2 0 0 0 
0 0 0 0 
5 0 2 0 
END
3 0 4 0 
0 0 5 0 
0 0 4 0 
0 0 0 0 
END
0 0 0 0 
11 0 2 0 
0 0 0 0 
0 2 5 0 
END
0 2 0 5 
0 0 2 0 
0 0 11 0 
0 0 0 0 
END
5 0 0 0 
4 4 0 0 
0 0 0 0 
11 0 0 0 
END
0 0 5 5 
0 0 11 0 
0 0 0 0 
0 0 0 5 
END
0 0 0 0 
0 2 0 0 
0 0 5 0 
0 1 0 0 
END
0 0 0 0 
0 0 1 0 
0 2 0 0 
0 0 0 2 
END
0 0 0 4 
4 0 0 0 
11 0 0 0 
1 0 0 0 
END
0 0 2 0 
0 0 4 0 
0 5 0 0 
0 0 0 0 
END
11 0 0 0 
0 0 0 0 
0 0 4 11 
0 0 0 0 
END
0 0 0 0 
0 0 0 2 
0 11 0 0 
11 4 0 0 
END
0 0 0 4 
0 0 0 11 
0 0 0 2 
0 0 5 0 
END
0 0 0 0 
0 0 3 5 
0 0 0 0 
4 0 3 0 
END
5 11 0 0 
0 0 0 0 
0 0 0 0 
11 0 0 5 
END
0 0 0 4 
0 0 11 0 
0 0 1 0 
0 0 0 0 
END
0 0 0 0 
3 0 4 0 
4 0 0 0 
0 0 0 3 
END
0 0 0 0 
0 3 4 1 
0 0 0 0 
0 0 11 0 
END
0 0 0 4 
0 0 4 0 
0 0 11 0 
0 0 0 1 
END
4 0 0 5 
0 0 2 0 
0 0 0 4 
0 0 0 0 
END
0 4 0 5 
0 0 0 0 
0 0 11 0 
0 0 0 0 
END
0 0 0 0 
5 0 0 0 
0 11 0 0 
0 0 0 1 
END
2 0 0 11 
0 0 0 0 
0 0 4 0 
0 4 0 0 
END
0 5 0 11 
0 0 0 0 
0 0 0 0 
2 0 0 0 
END
0 11 0 0 
0 0 0 11 
0 0 0 11 
0 11 0 0 
END
0 0 1 0 
0 0 0 0 
0 0 0 11 
0 0 5 11 
END
0 11 3 0 
0 0 11 0 
0 0 0 0 
0 0 0 4 
END
0 0 1 0 
11 0 4 0 
11 0 0 0 
0 0 0 0 
END
11 0 0 1 
0 0 0 0 
3 0 0 0 
0 0 0 5 
END
0 0 0 4 
11 11 0 3 
0 0 0 0 
0 0 0 0 
END
0 4 0 0 
0 0 0 0 
0 0 0 0 
11 0 5 0 
END
1 5 0 0 
0 0 0 0 
5 0 5 0 
0 0 0 0 
END
0 1 0 0 
0 0 2 0 
0 11 0 2 
0 0 0 0 
END
0 0 0 3 
0 0 0 0 
5 0 0 0 
0 0 4 0 
END
3 0 0 0 
0 0 0 0 
5 1 0 0 
0 5 0 0 
END
0 0 0 0 
4 11 0 0 
4 0 0 11 
0 0 0 0 
END
4 0 0 0 
0 0 0 0 
0 11 0 0 
0 4 0 0 
END
11 11 0 0 
0 0 0 0 
0 0 0 0 
0 11 0 3 
END
0 0 4 0 
0 0 0 0 
0 0 0 0 
5 3 5 0 
END
0 0 0 11 
4 0 0 0 
0 0 11 11 
0 0 0 0 
END
2 11 0 0 
0 0 0 0 
0 0 0 0 
0 5 0 2 
END
11 5 0 0 
0 0 0 0 
0 1 0 0 
0 3 0 0 
END
0 0 0 0 
11 0 0 0 
0 5 4 0 
0 0 0 5 
END
0 0 0 0 
0 0 4 11 
0 4 0 0 
5 0 0 0 
END
0 0 0 0 
11 0 0 0 
0 3 3 0 
0 3 0 0 
END
0 0 0 0 
0 0 0 0 
2 0 0 0 
4 3 0 0 
END
0 0 2 0 
5 11 0 0 
0 11 0 0 
0 0 0 0 
END
0 11 0 5 
0 0 11 0 
0 0 0 0 
0 0 5 0 
END
0 4 0 0 
1 0 0 0 
0 0 0 0 
0 5 4 0 
END
0 2 2 2 
0 0 0 2 
0 0 0 0 
0 0 0 0 
END
0 0 2 0 
2 11 0 0 
0 0 0 0 
0 0 3 0 
END
0 0 0 0 
5 0 0 11 
2 1 0 0 
0 0 0 0 
END
2 0 0 0 
0 0 0 0 
11 0 0 11 
11 0 0 0 
END
5 0 0 4 
0 0 0 0 
11 0 0 4 
0 0 0 0 
END
0 4 0 0 
0 0 0 0 
0 0 0 0 
1 11 0 4 
END
0 0 11 0 
0 0 11 0 
0 0 0 0 
3 0 0 0 
END
0 0 0 0 
1 0 0 0 
0 0 3 0 
0 0 4 11 
END
0 0 0 0 
2 0 4 3 
0 0 11 0 
0 0 0 0 
END
0 0 0 0 
0 0 5 0 
0 11 11 0 
0 0 4 0 
END
3 0 0 0 
0 0 0 1 
0 0 1 1 
0 0 0 0 
END
0 0 0 5 
0 0 3 0 
4 0 0 0 
4 0 0 0 
END
0 0 5 0 
0 0 5 0 
5 0 0 0 
11 0 0 0 
END
0 0 0 4 
0 0 0 0 
0 5 0 0 
0 0 4 0 
END
0 0 5 0 
0 0 0 0 
0 0 1 11 
0 0 5 0 
END
0 0 5 0 
0 0 0 1 
0 0 0 0 
4 0 1 0 
END
1 5 0 0 
0 0 0 0 
0 5 4 0 
0 0 0 0 
END
0 11 4 0 
0 0 0 0 
0 0 0 0 
0 11 11 0 
END
5 0 0 0 
0 2 0 0 
0 0 0 1 
0 0 4 0 
END
0 0 0 0 
0 0 0 0 
0 0 5 0 
0 5 11 11 
END
0 0 0 11 
0 0 0 0 
0 0 0 1 
0 11 0 0 
END
0 0 0 3 
0 11 0 0 
0 1 0 0 
0 2 0 0 
END
0 0 5 0 
4 0 0 0 
0 0 4 0 
5 0 0 0 
END
0 0 0 3 
0 0 0 0 
4 0 11 0 
0 4 0 0 
END
0 11 0 0 
0 0 4 0 
4 0 0 0 
5 0 0 0 
END
0 0 0 11 
11 0 0 0 
0 0 0 0 
4 0 3 0 
END
0 3 11 0 
0 0 0 0 
0 5 0 0 
0 3 0 0 
END
0 0 0 0 
11 0 4 0 
4 0 5 0 
0 0 0 0 
END
0 0 0 5 
0 3 0 0 
4 0 0 0 
0 0 0 0 
END
1 5 0 0 
0 11 0 0 
0 0 0 0 
0 0 5 0 
END
0 0 0 11 
3 1 0 0 
0 0 0 0 
0 0 0 3 
END
0 0 0 2 
0 2 0 0 
0 0 0 0 
5 0 0 3 
END
0 0 0 0 
0 0 0 11 
0 0 0 1 
11 5 0 0 
END
0 0 0 0 
1 0 0 0 
1 0 0 3 
0 4 0 0 
END
0 0 0 11 
0 0 0 0 
0 0 3 0 
0 2 2 0 
END
0 0 0 1 
0 0 0 0 
0 0 5 4 
4 0 0 0 
END
3 0 0 0 
0 0 0 5 
0 11 0 0 
0 0 0 0 
END
0 0 0 0 
5 0 0 0 
0 0 5 11 
0 3 0 0 
END
0 0 11 0 
0 0 4 4 
0 0 0 0 
0 0 0 0 
END
0 4 11 0 
0 0 0 0 
0 0 0 0 
4 0 0 11 
END
11 0 0 5 
0 4 0 0 
0 0 11 0 
0 0 0 0 
END
0 4 0 0 
0 3 0 0 
0 4 4 0 
0 0 0 0 
END
0 0 0 0 
0 0 11 0 
0 0 0 0 
4 4 0 11 
END
4 0 0 0 
11 0 0 0 
5 0 0 0 
0 4 0 0 
END
1 11 11 0 
0 0 0 0 
0 0 0 0 
0 0 4 0 
END
0 0 0 0 
0 5 0 0 
0 0 0 4 
0 4 0 0 
END
0 0 11 0 
0 4 0 0 
11 0 11 0 
0 0 0 0 
END
0 0 0 0 
0 0 5 0 
0 0 0 4 
0 11 0 5 
END
0 4 0 0 
0 0 0 0 
11 0 3 0 
11 0 0 0 
END
0 0 0 0 
0 0 4 1 
0 5 0 0 
0 0 0 5 
END
0 4 3 0 
0 0 0 0 
0 0 0 0 
2 0 0 11 
END
0 0 0 0 
0 0 0 2 
0 0 0 0 
11 11 0 0 
END
3 4 0 0 
0 1 0 0 
0 11 0 0 
0 0 0 0 
END
0 0 5 0 
0 11 0 11 
1 0 0 0 
0 0 0 0 
END
0 2 0 0 
0 0 0 0 
0 0 0 0 
1 4 0 5 
END
0 0 0 0 
5 0 0 11 
0 0 0 0 
5 0 11 0 
END
0 11 1 0 
0 0 0 0 
5 0 0 0 
0 0 0 2 
END
0 0 0 4 
11 0 0 0 
11 0 0 0 
5 0 0 0 
END
0 0 4 11 
0 0 0 0 
0 0 11 0 
0 3 0 0 
END
0 0 5 0 
5 0 0 0 
0 0 0 0 
0 2 0 0 
END
0 0 0 0 
4 11 0 0 
0 1 0 0 
0 0 5 0 
END
0 0 2 0 
11 0 0 0 
0 11 0 0 
0 0 4 0 
END
0 0 1 0 
0 4 0 0 
11 0 0 0 
0 0 0 0 
END
0 1 0 0 
0 0 5 0 
0 4 0 0 
11 0 0 0 
END
0 0 0 0 
0 0 4 11 
0 0 5 0 
0 0 11 0 
END
0 4 0 0 
0 0 5 0 
0 2 0 0 
0 0 0 0 
END
0 0 5 0 
0 0 4 0 
0 4 0 0 
5 0 0 0 
END
0 0 11 3 
0 5 0 0 
0 0 11 0 
0 0 0 0 
END
0 0 0 11 
0 11 0 0 
0 11 0 0 
0 0 0 5 
END
0 5 0 11 
0 4 0 0 
0 11 0 0 
0 0 0 0 
END
0 0 4 11 
0 0 0 0 
0 0 0 0 
0 0 11 0 
END
0 3 0 0 
0 0 5 0 
0 0 2 3 
0 0 0 0 
END
3 0 2 0 
0 0 0 3 
0 0 2 0 
0 0 0 0 
END
1 0 11 0 
0 0 0 0 
0 11 0 0 
1 0 0 0 
END
0 11 0 0 
5 0 0 0 
1 0 0 0 
0 0 0 0 
END
0 0 0 0 
0 11 0 0 
11 2 0 0 
0 0 11 0 
END
0 0 0 11 
2 0 0 0 
1 0 0 0 
0 0 0 11 
END
0 0 0 0 
0 0 0 0 
0 4 0 0 
5 3 2 0 
END
0 0 0 2 
3 0 0 0 
0 0 0 0 
0 4 0 11 
END
4 0 0 0 
0 0 0 0 
4 0 0 1 
0 2 0 0 
END
11 0 0 0 
0 0 0 1 
0 5 0 0 
0 0 11 0 
END
0 0 0 0 
5 0 0 0 
0 0 4 0 
4 0 5 0 
END
11 0 0 4 
0 0 4 0 
0 0 0 0 
0 0 0 0 
END
1 0 0 0 
4 0 0 0 
5 5 0 0 
0 0 0 0 
END
0 0 0 0 
5 0 0 11 
0 0 0 0 
0 0 1 11 
END
11 0 0 0 
0 0 5 0 
11 0 4 0 
0 0 0 0 
END
0 0 0 0 
5 11 0 5 
11 0 0 0 
0 0 0 0 
END
0 0 0 0 
0 0 0 5 
0 0 3 5 
5 0 0 0 
END
2 0 0 0 
0 5 0 0 
0 0 0 11 
5 0 0 0 
END
0 11 0 0 
0 1 5 5 
0 0 0 0 
0 0 0 0 
END
4 0 0 4 
0 0 0 0 
0 0 5 1 
0 0 0 0 
END
0 11 0 0 
3 0 4 0 
4 0 0 0 
0 0 0 0 
END
0 0 0 0 
11 0 0 0 
0 0 3 0 
0 0 4 5 
END
0 0 0 0 
0 0 0 3 
0 5 0 3 
4 0 0 0 
END
0 0 2 2 
0 5 0 0 
0 0 0 3 
0 0 0 0 
END
2 0 0 0 
0 0 0 0 
0 0 0 5 
11 0 0 0 
END
0 0 0 0 
1 0 0 1 
0 0 11 0 
0 0 0 0 
END
11 0 4 0 
0 0 0 0 
0 11 11 0 
0 0 0 0 
END
0 4 0 0 
0 0 0 2 
0 0 0 0 
0 0 11 1 
END
0 0 0 0 
0 11 1 0 
0 0 4 0 
0 0 0 5 
END
0 0 0 0 
0 11 0 0 
1 5 0 0 
0 4 0 0 
END
0 0 0 0 
0 0 0 0 
11 0 0 2 
11 0 0 0 
END
0 5 0 0 
1 0 1 0 
0 1 0 0 
0 0 0 0 
END
11 0 2 0 
4 0 0 3 
0 0 0 0 
0 0 0 0 
END
0 0 0 2 
4 4 0 0 
0 0 0 11 
0 0 0 0 
END
0 0 3 0 
0 0 0 0 
0 0 11 0 
11 0 11 0 
END
0 0 0 0 
11 4 0 0 
0 0 4 0 
3 0 0 0 
END
0 0 0 0 
0 3 0 0 
0 0 3 0 
0 0 0 1 
END
0 0 5 0 
0 0 5 0 
0 0 11 0 
0 11 0 0 
END
0 0 0 0 
5 11 0 0 
0 0 0 4 
0 11 0 0 
END
0 0 0 11 
0 0 4 0 
0 11 0 0 
0 0 0 11 
END
0 0 0 0 
11 0 0 0 
1 11 4 0 
0 0 0 0 
END
0 0 0 2 
0 0 0 0 
0 0 4 0 
5 4 0 0 
END
0 0 0 0 
0 1 4 0 
0 0 0 0 
0 2 5 0 
END
2 0 0 0 
0 0 4 4 
0 0 0 1 
0 0 0 0 
END
0 1 0 0 
0 3 0 0 
1 0 0 0 
4 0 0 0 
END
5 0 0 0 
0 0 4 0 
0 0 0 0 
0 4 4 0 
END
0 0 0 5 
0 1 0 0 
0 0 0 2 
0 0 0 0 
END
0 2 0 11 
0 0 11 3 
0 0 0 0 
0 0 0 0 
END
0 0 5 5 
4 0 0 4 
0 0 0 0 
0 0 0 0 
END
0 0 0 0 
0 0 0 0 
0 0 0 0 
0 2 2 11 
END
11 11 11 0 
0 0 0 0 
0 0 0 0 
0 0 0 0 
END
0 1 0 0 
0 0 0 0 
0 2 4 0 
0 2 0 0 
END
0 0 0 0 
0 4 0 0 
0 0 11 0 
4 0 0 0 
END
0 0 0 0 
0 0 0 4 
0 0 5 0 
3 0 0 1 
END
0 5 0 0 
0 0 0 0 
0 11 0 0 
0 1 5 0 
END
0 0 1 0 
0 0 0 1 
11 0 0 0 
4 0 0 0 
END
0 0 5 0 
1 0 0 0 
2 0 0 0 
0 0 4 0 
END
0 0 0 5 
11 0 4 0 
0 0 0 0 
0 0 0 0 
END
0 0 0 1 
3 0 0 5 
0 0 0 1 
0 0 0 0 
END
0 0 11 0 
0 0 0 0 
2 0 0 0 
1 0 0 2 
END
0 0 0 0 
2 4 0 0 
0 0 2 0 
0 0 0 3 
END
0 3 0 0 
0 0 0 0 
0 3 0 11 
0 1 0 0 
END
0 0 0 0 
0 0 0 0 
1 0 2 0 
0 3 0 0 
END
1 4 0 0 
0 0 5 0 
0 0 0 0 
0 11 0 0 
END
0 11 0 0 
0 0 0 5 
0 0 0 0 
0 1 5 0 
END
4 4 0 0 
0 0 4 0 
0 0 0 0 
0 0 0 0 
END
5 0 0 0 
11 0 0 5 
0 0 0 3 
0 0 0 0 
END
0 0 0 0 
0 0 5 0 
11 0 5 0 
0 0 0 11 
END
0 0 0 11 
0 0 0 0 
4 0 0 1 
5 0 0 0 
END
0 0 0 0 
1 5 0 0 
0 0 0 0 
0 1 3 0 
END
0 0 0 0 
0 0 0 11 
0 0 0 2 
0 4 3 0 
END
0 0 0 0 
0 0 0 2 
0 4 0 0 
0 0 5 0 
END
11 0 11 0 
0 0 0 0 
0 0 0 0 
0 5 0 0 
END
0 0 0 0 
2 5 0 0 
4 0 0 0 
11 0 0 0 
END
0 0 0 0 
0 0 3 0 
11 0 0 0 
0 0 5 11 
END
0 11 0 2 
0 0 11 0 
0 0 0 0 
0 0 0 0 
END
0 0 0 0 
0 0 0 0 
4 0 11 0 
4 0 11 0 
END
0 0 0 0 
0 0 5 0 
3 0 0 0 
0 0 5 3 
END
0 4 0 0 
0 11 0 0 
0 0 0 0 
0 11 1 0 
END
0 0 0 4 
0 0 0 0 
0 11 0 0 
4 0 0 0 
END
0 0 3 11 
0 0 0 0 
4 0 0 0 
0 0 3 0 
END
0 4 0 0 
0 0 0 0 
0 0 0 0 
0 0 11 1 
END
0 0 0 0 
0 0 0 3 
0 11 1 11 
0 0 0 0 
END
0 0 0 0 
0 0 0 0 
0 0 1 0 
2 0 4 0 
END
1 0 0 0 
0 0 1 0 
5 0 0 0 
4 0 0 0 
END
0 0 0 11 
0 0 0 1 
0 0 0 1 
0 0 0 0 
END
0 4 0 0 
5 0 0 4 
4 0 0 0 
0 0 0 0 
END
0 5 0 0 
0 0 0 0 
0 0 0 0 
11 0 5 2 
END
0 0 0 0 
0 0 1 0 
0 0 5 0 
0 0 0 2 
END
0 0 0 0 
0 4 5 0 
5 0 0 0 
1 0 0 0 
END
0 0 0 0 
0 0 0 0 
0 0 4 0 
5 0 0 2 
END
0 0 0 0 
0 4 3 11 
0 0 0 0 
0 3 0 0 
END
0 0 0 0 
2 0 0 1 
0 0 0 0 
11 0 5 0 
END
11 0 11 0 
0 0 0 0 
0 0 0 0 
0 0 5 5 
END
0 4 2 0 
0 0 0 0 
0 0 0 0 
5 5 0 0 
END
0 0 0 4 
0 0 11 0 
0 0 0 0 
0 0 11 0 
END
0 0 0 0 
0 0 5 11 
0 0 0 2 
3 0 0 0 
END
0 0 0 11 
0 4 0 0 
0 11 0 0 
2 0 0 0 
END
0 0 4 0 
0 0 0 0 
1 0 0 0 
0 0 1 0 
END
0 0 0 3 
0 0 0 0 
0 0 11 0 
0 0 3 0 
END
0 0 0 0 
0 3 0 0 
0 2 1 5 
0 0 0 0 
END
0 0 11 0 
0 0 0 0 
0 4 0 11 
0 0 4 0 
END
0 0 0 4 
0 0 3 0 
0 3 0 0 
11 0 0 0 
END
0 0 0 0 
1 0 0 0 
1 0 0 0 
0 11 0 2 
END
0 0 0 0 
0 0 0 0 
0 11 0 3 
0 11 4 0 
END
0 0 0 0 
0 11 3 0 
4 0 0 0 
0 0 1 0 
END
0 0 0 0 
4 0 0 0 
5 5 0 0 
0 0 0 4 
END
0 0 4 0 
0 5 0 11 
0 0 4 0 
0 0 0 0 
END
0 0 4 0 
0 0 11 0 
3 0 0 0 
0 0 0 0 
END
0 0 3 11 
0 0 0 0 
0 2 0 5 
0 0 0 0 
END
0 0 0 0 
2 5 0 0 
0 5 0 0 
11 0 0 0 
END
0 3 0 0 
0 0 0 0 
0 0 0 5 
0 0 11 4 
END
0 0 0 0 
0 0 11 0 
0 0 0 0 
11 5 3 0 
END
3 0 0 5 
0 0 0 0 
0 0 0 0 
11 0 2 0 
END
0 0 0 2 
0 0 5 0 
0 0 0 0 
11 0 0 3 
END
0 5 0 0 
0 5 0 0 
0 0 0 0 
4 4 0 0 
END
0 0 0 5 
0 0 11 0 
5 0 0 0 
0 5 0 0 
END
0 0 0 4 
0 0 0 2 
0 0 0 0 
0 11 2 0 
END
11 0 0 0 
0 0 0 0 
4 0 0 0 
5 0 0 5 
END
11 4 0 0 
0 0 0 0 
0 1 0 0 
0 0 0 3 
END
0 0 0 3 
0 0 0 0 
0 4 0 4 
0 1 0 0 
END
0 0 0 3 
0 0 4 0 
0 0 1 0 
0 0 0 11 
END
11 0 0 5 
0 0 0 0 
1 0 0 0 
0 0 0 4 
END
0 0 0 0 
0 0 0 0 
0 0 5 0 
5 5 2 0 
END
0 0 0 0 
4 0 0 0 
11 0 0 0 
3 0 0 5 
END
0 0 0 0 
0 0 0 1 
0 0 11 0 
1 0 5 0 
END
0 0 0 0 
11 0 0 0 
0 0 0 0 
0 4 3 11 
END
0 3 0 0 
0 0 4 0 
1 0 0 0 
0 0 0 0 
END
0 0 4 0 
0 0 5 0 
5 0 0 0 
2 0 0 0 
END
0 0 11 0 
0 0 11 0 
0 0 3 0 
0 0 11 0 
END
0 1 3 0 
2 0 0 0 
0 0 4 0 
0 0 0 0 
END
11 0 0 0 
0 0 0 5 
3 0 0 1 
0 0 0 0 
END
0 3 0 0 
0 5 2 0 
5 0 0 0 
0 0 0 0 
END
0 0 2 11 
0 5 0 0 
0 0 0 0 
0 2 0 0 
END
0 0 0 0 
0 11 0 0 
0 11 5 0 
5 0 0 0 
END
0 0 5 0 
0 0 0 0 
0 0 0 0 
0 0 11 2 
END
11 0 0 0 
0 0 0 11 
2 0 0 0 
0 0 0 0 
END
0 0 5 0 
0 0 0 0 
0 0 0 5 
0 5 0 3 
END
5 3 0 0 
0 11 0 0 
0 0 0 0 
0 0 3 0 
END
0 0 11 0 
0 0 5 0 
4 0 0 0 
0 2 0 0 
END
0 0 0 0 
3 0 5 0 
0 0 0 0 
4 0 0 4 
END
0 0 3 0 
5 0 0 0 
0 0 5 0 
0 0 5 0 
END
0 0 0 5 
0 11 0 0 
0 5 0 0 
0 0 0 4 
END
11 1 0 0 
0 11 11 0 
0 0 0 0 
0 0 0 0 
END
0 0 0 0 
4 0 0 11 
4 11 0 0 
0 0 0 0 
END
0 0 0 0 
0 0 0 0 
5 0 11 5 
0 0 0 0 
END
0 2 4 0 
0 0 0 0 
4 0 2 0 
0 0 0 0 
END
0 0 0 0 
2 0 0 0 
0 4 0 0 
4 0 5 0 
END
0 0 0 5 
0 5 11 0 
0 0 0 0 
5 0 0 0 
END
0 4 0 0 
0 0 4 0 
0 0 0 5 
1 0 0 0 
END
0 11 0 0 
0 0 0 5 
11 0 0 0 
0 0 0 2 
END
0 0 4 0 
0 0 0 5 
4 0 0 11 
0 0 0 0 
END
11 0 0 0 
0 0 11 0 
0 0 11 0 
0 0 0 0 
END
0 0 0 0 
0 0 0 11 
4 0 11 0 
0 0 4 0 
END
0 0 1 0 
0 0 0 4 
0 0 0 0 
0 11 0 5 
END
4 0 11 0 
0 0 0 0 
0 5 0 0 
0 0 0 3 
END
0 11 0 0 
0 3 0 0 
11 4 0 0 
0 0 0 0 
END
0 5 11 0 
2 0 4 0 
0 0 0 0 
0 0 0 0 
END
0 0 0 3 
0 0 0 0 
4 0 0 0 
5 0 0 0 
END
0 0 0 0 
0 0 0 0 
0 0 1 11 
0 1 0 1 
END
4 4 0 0 
0 0 0 0 
3 0 0 0 
0 11 0 0 
END
0 11 0 0 
0 0 0 0 
0 4 11 11 
0 0 0 0 
END
0 0 0 0 
4 0 0 11 
0 0 0 11 
0 2 0 0 
END
11 0 5 0 
0 0 0 0 
5 0 0 0 
0 0 0 1 
END
0 0 5 0 
0 2 0 0 
0 0 1 0 
0 0 5 0 
END
0 3 3 0 
0 0 0 0 
0 0 0 0 
11 0 0 4 
END
2 0 0 11 
0 3 0 0 
0 0 5 0 
0 0 0 0 
END
0 0 0 0 
0 0 1 0 
0 1 0 4 
0 0 0 2 
END
4 4 0 0 
0 0 5 0 
11 0 0 0 
0 0 0 0 
END
0 0 0 2 
3 0 0 0 
11 0 0 3 
0 0 0 0 
END
0 0 4 0 
0 0 0 0 
5 0 5 0 
0 0 0 4 
END
0 0 0 0 
0 0 0 0 
0 0 5 11 
11 0 0 0 
END
0 0 0 0 
0 0 1 5 
11 0 0 0 
11 0 0 0 
END
0 0 0 0 
0 0 11 5 
0 0 0 0 
4 0 4 0 
END
4 0 11 0 
0 0 2 0 
0 11 0 0 
0 0 0 0 
END
0 0 0 0 
0 0 11 0 
0 0 0 0 
0 1 0 5 
END
0 5 0 0 
0 0 0 5 
4 0 0 0 
0 0 0 11 
END
0 0 0 0 
0 0 4 2 
0 11 0 0 
0 5 0 0 
END
0 0 0 0 
1 0 0 3 
0 0 11 0 
0 0 1 0 
END
11 0 0 0 
0 0 0 2 
0 11 0 0 
11 0 0 0 
END
0 0 1 0 
0 4 3 0 
0 0 0 0 
0 0 0 0 
END
0 1 0 0 
2 0 0 0 
0 0 0 0 
4 5 0 0 
END
3 5 0 0 
0 0 11 0 
0 5 0 0 
0 0 0 0 
END
0 11 5 0 
0 0 0 4 
0 0 5 0 
0 0 0 0 
END
0 3 0 0 
0 3 2 0 
0 0 0 0 
0 0 0 11 
END
0 0 4 0 
0 0 0 0 
0 0 0 0 
0 3 11 1 
END
0 0 0 0 
0 0 0 0 
2 0 3 0 
2 0 0 3 
END
11 0 0 0 
0 0 11 0 
3 5 0 0 
0 0 0 0 
END
0 0 4 0 
0 0 11 0 
0 0 0 0 
0 11 3 0 
END
5 0 0 5 
0 0 0 0 
0 0 0 0 
0 4 5 0 
END
0 0 0 11 
0 0 0 0 
0 3 0 0 
0 0 2 0 
END
5 0 0 0 
11 0 0 0 
2 0 0 0 
0 0 0 11 
END
0 0 11 0 
0 0 0 4 
0 11 0 0 
0 0 0 0 
END
2 0 0 0 
11 4 0 0 
0 0 0 0 
0 2 0 0 
END
0 0 0 4 
0 0 0 0 
0 0 0 0 
0 0 4 5 
END
0 0 0 1 
5 5 0 0 
0 0 0 0 
0 0 0 2 
END
0 1 3 0 
0 0 0 0 
11 0 0 11 
0 0 0 0 
END
0 0 0 5 
0 0 0 5 
4 0 0 11 
0 0 0 0 
END
0 0 0 0 
0 0 4 0 
0 0 0 0 
11 5 0 11 
END
0 0 0 0 
0 0 0 0 
0 3 0 0 
4 0 3 11 
END
0 1 0 0 
0 2 0 0 
5 0 0 0 
0 0 0 0 
END
0 0 0 3 
0 0 0 0 
0 0 0 11 
1 0 0 0 
END
0 5 0 0 
4 0 0 0 
1 0 0 0 
4 0 0 0 
END
0 0 11 0 
0 0 0 0 
0 0 0 0 
0 3 2 2 
END
0 5 0 5 
0 1 0 0 
0 0 0 0 
0 11 0 0 
END
0 0 5 0 
0 0 5 0 
0 4 0 0 
0 0 5 0 
END
0 0 4 0 
0 0 0 0 
4 0 0 0 
0 0 3 0 
END
0 0 0 0 
0 0 0 0 
0 0 0 3 
0 3 5 0 
END
0 0 0 0 
0 0 11 0 
0 2 0 0 
5 0 0 0 
END
1 0 0 0 
0 0 0 11 
3 0 0 0 
0 0 0 11 
END
0 0 0 0 
0 5 0 0 
0 0 0 5 
2 0 5 0 
END
0 11 4 0 
0 0 11 0 
0 0 5 0 
0 0 0 0 
END
0 0 0 0 
0 2 5 4 
0 0 0 0 
0 0 2 0 
END
0 11 0 0 
2 0 0 0 
0 0 0 0 
1 0 4 0 
END
0 0 0 0 
0 11 0 3 
0 0 0 0 
3 0 0 0 
END
0 0 0 4 
11 0 0 0 
0 0 0 0 
0 11 4 0 
END
1 0 0 0 
0 0 0 0 
0 4 0 1 
0 4 0 0 
END
0 0 5 0 
0 2 0 0 
0 0 11 0 
0 0 0 0 
END
0 4 0 2 
5 0 0 0 
0 0 0 0 
0 0 3 0 
END
0 0 0 1 
0 0 0 3 
11 0 0 0 
2 0 0 0 
END
0 0 11 0 
0 0 0 0 
11 0 0 0 
0 0 0 5 
END
0 0 5 0 
0 0 0 0 
0 0 5 0 
4 5 0 0 
END
0 0 1 5 
0 4 0 0 
0 0 0 0 
3 0 0 0 
END
0 0 0 0 
0 0 0 5 
0 0 4 11 
0 0 0 0 
END
11 0 0 0 
0 0 4 0 
0 0 3 0 
0 0 0 0 
END
0 0 0 4 
0 0 0 0 
0 0 2 4 
0 0 0 4 
END
5 0 0 0 
0 0 11 0 
0 0 11 0 
0 0 11 0 
END
0 5 0 0 
5 0 2 0 
0 0 0 0 
0 0 11 0 
END
2 4 0 0 
0 0 0 0 
0 0 0 4 
5 0 0 0 
END
0 0 0 0 
0 5 2 0 
11 0 0 0 
0 0 0 4 
END
0 0 0 11 
0 5 0 0 
0 0 0 0 
0 0 5 0 
END
0 0 0 4 
4 0 0 0 
0 11 0 0 
0 0 0 4 
END
4 0 0 0 
0 1 0 0 
4 0 0 0 
0 4 0 0 
END
0 5 1 0 
0 0 0 0 
0 0 3 0 
0 0 0 0 
END
0 5 0 0 
0 0 0 0 
5 4 0 0 
4 0 0 0 
END
0 0 0 0 
0 4 0 0 
0 3 11 0 
0 4 0 0 
END
0 2 0 0 
0 0 5 0 
11 0 0 0 
0 0 0 2 
END
0 11 0 0 
0 11 0 1 
0 0 4 0 
0 0 0 0 
END
0 0 0 0 
0 0 0 4 
0 11 0 11 
0 0 2 0 
END
1 0 0 0 
0 5 0 0 
0 0 0 0 
0 0 0 5 
END
0 1 0 0 
0 0 0 0 
11 0 0 0 
0 11 0 11 
END
0 0 4 0 
0 0 0 0 
0 0 11 0 
0 0 0 3 
END
0 11 4 0 
0 0 0 0 
5 0 0 0 
0 5 0 0 
END
0 0 1 2 
0 0 0 0 
0 5 0 0 
0 0 0 2 
END
11 0 0 5 
0 4 0 0 
0 4 0 0 
0 0 0 0 
END
11 0 0 5 
0 0 0 0 
4 0 0 0 
0 4 0 0 
END
4 0 0 11 
0 0 0 0 
0 0 11 0 
0 0 5 0 
END
0 0 0 0 
0 0 3 0 
1 0 4 0 
0 0 0 11 
END
0 0 0 1 
0 0 5 0 
0 0 0 0 
4 5 0 0 
END
0 0 2 0 
0 0 0 0 
0 11 0 11 
0 5 0 0 
END
1 0 4 0 
0 0 0 0 
0 0 0 0 
11 0 0 5 
END
1 0 4 0 
0 0 0 0 
0 0 5 0 
0 11 0 0 
END
0 0 0 0 
0 0 0 0 
0 11 0 11 
0 4 0 11 
END
0 0 0 0 
0 1 0 11 
0 0 0 0 
0 0 11 11 
END
0 4 3 0 
0 3 0 0 
0 11 0 0 
0 0 0 0 
END
0 4 2 0 
4 0 2 0 
0 0 0 0 
0 0 0 0 
END
0 0 5 11 
0 0 0 4 
0 0 0 0 
0 2 0 0 
END
3 0 11 0 
0 0 0 1 
0 0 0 0 
4 0 0 0 
END
0 0 0 0 
0 0 0 0 
0 5 11 1 
0 0 0 0 
END
0 11 0 0 
0 4 0 0 
0 4 0 0 
0 0 0 11 
END
0 0 0 1 
0 11 0 0 
0 0 11 0 
0 11 0 0 
END
0 0 0 0 
0 0 5 0 
0 3 0 0 
11 0 11 0 
END
0 0 4 11 
0 0 0 0 
0 0 0 0 
1 0 0 5 
END
0 0 0 0 
5 4 2 0 
0 0 0 0 
0 0 0 0 
END
0 0 11 5 
0 3 0 0 
0 0 0 0 
0 0 0 0 
END
0 0 0 11 
0 0 0 0 
5 0 0 4 
0 5 0 0 
END
0 3 0 0 
0 0 0 0 
0 0 0 0 
0 1 4 4 
END
5 0 0 0 
0 0 5 0 
4 0 0 0 
0 0 0 5 
END
0 0 0 0 
1 0 0 0 
0 4 0 0 
0 5 0 0 
END
2 0 0 0 
0 0 0 11 
0 3 0 0 
2 0 0 0 
END
0 0 0 3 
0 0 0 5 
0 0 4 0 
0 0 0 11 
END
1 0 0 0 
0 0 0 0 
0 5 0 4 
0 0 1 0 
END
0 0 0 0 
0 5 0 0 
2 0 0 4 
0 0 0 11 
END
5 0 0 0 
0 0 4 0 
0 4 0 0 
0 0 1 0 
END
0 2 0 0 
0 0 5 0 
0 0 0 0 
11 1 0 0 
END
0 0 0 5 
2 0 0 0 
0 0 0 0 
0 0 4 5 
END
0 5 3 0 
0 0 0 0 
2 0 0 3 
0 0 0 0 
END
0 0 0 0 
0 2 5 0 
0 0 0 3 
0 0 0 1 
END
0 0 0 0 
4 0 5 0 
0 0 0 0 
11 5 0 0 
END
3 0 3 0 
0 0 11 0 
0 0 0 4 
0 0 0 0 
END
0 0 0 11 
0 0 0 0 
11 0 0 0 
0 0 0 4 
END
1 2 0 0 
0 0 0 0 
0 0 0 11 
0 0 0 0 
END
0 0 0 0 
2 0 0 4 
0 4 0 0 
1 0 0 0 
END
0 0 5 0 
0 11 3 0 
0 0 0 0 
0 11 0 0 
END
0 0 0 0 
4 11 0 0 
0 5 0 4 
0 0 0 0 
END
0 0 0 0 
0 0 0 0 
0 0 0 0 
0 5 1 11 
END
0 1 0 5 
0 2 0 0 
0 11 0 0 
0 0 0 0 
END
0 0 0 0 
0 0 0 11 
0 3 0 4 
5 0 0 0 
END
4 0 0 0 
11 0 0 11 
0 0 0 0 
0 0 5 0 
END
0 0 0 0 
0 0 11 0 
11 0 0 5 
0 0 0 11 
END
0 0 0 0 
0 4 0 0 
0 0 0 0 
1 4 0 5 
END
0 0 0 5 
3 0 4 0 
0 11 0 0 
0 0 0 0 
END
0 11 0 0 
0 0 0 0 
0 0 0 0 
2 0 11 0 
END
1 0 0 0 
4 0 0 0 
0 0 0 0 
1 3 0 0 
END
0 0 0 0 
2 0 0 0 
0 5 0 0 
0 0 0 11 
END
0 0 3 0 
0 5 0 0 
0 0 5 0 
0 0 0 0 
END
0 0 0 0 
4 0 0 11 
0 11 0 0 
1 0 0 0 
END
0 11 0 0 
0 0 0 0 
5 0 0 3 
11 0 0 0 
END
0 0 0 0 
0 0 0 0 
5 0 0 0 
11 11 0 0 
END
0 3 0 0 
0 0 0 0 
1 5 0 0 
0 0 0 5 
END
0 0 0 0 
0 0 11 1 
11 0 0 0 
0 0 4 0 
END
0 0 0 2 
0 0 0 3 
0 2 0 1 
0 0 0 0 
END
0 0 11 0 
1 0 0 0 
0 5 0 0 
0 0 0 0 
END
0 0 3 0 
0 0 0 0 
3 11 0 0 
0 0 2 0 
END
4 0 0 5 
0 0 0 4 
0 0 0 0 
0 0 5 0 
END
0 0 0 0 
0 3 0 0 
11 0 0 0 
0 4 0 4 
END
5 0 11 0 
5 0 0 0 
1 0 0 0 
0 0 0 0 
END
0 0 11 0 
0 0 2 0 
0 0 5 0 
0 0 0 0 
END
0 0 5 0 
0 0 0 2 
1 0 0 0 
0 0 0 0 
END
1 0 0 0 
0 0 0 4 
0 0 0 11 
0 0 11 0 
END
0 0 0 0 
11 11 0 0 
0 0 0 0 
11 5 0 0 
END
0 0 4 0 
5 5 0 0 
0 0 0 0 
11 0 0 0 
END
0 0 0 2 
0 0 11 0 
0 5 0 0 
0 0 0 0 
END
0 0 0 0 
0 0 0 2 
0 5 11 0 
0 0 0 4 
END
0 0 5 0 
0 2 5 0 
0 0 4 0 
0 0 0 0 
END
0 0 11 3 
0 0 0 0 
0 5 0 0 
2 0 0 0 
END
0 0 0 4 
0 11 0 0 
0 4 0 0 
0 0 0 4 
END
0 0 0 2 
5 0 5 0 
0 0 0 5 
0 0 0 0 
END
2 0 0 4 
0 0 11 0 
0 0 0 0 
0 2 0 0 
END
0 5 0 4 
0 0 5 0 
0 0 11 0 
0 0 0 0 
END
0 0 0 2 
11 0 0 0 
0 0 0 0 
0 0 1 4 
END
0 0 0 0 
5 0 11 0 
0 4 0 0 
0 0 2 0 
END
0 2 0 0 
11 0 0 0 
0 4 0 0 
4 0 0 0 
END
11 0 0 0 
0 0 0 0 
0 0 11 0 
0 5 3 0 
END
0 0 0 5 
0 0 0 4 
0 0 0 0 
5 4 0 0 
END
0 0 4 0 
1 4 0 0 
0 0 0 0 
0 0 0 0 
END
0 0 0 0 
1 0 0 0 
0 2 0 0 
0 2 0 0 
END
0 0 0 3 
0 0 0 0 
0 0 11 11 
11 0 0 0 
END
0 0 0 3 
0 2 11 0 
0 0 0 0 
0 2 0 0 
END
0 0 0 11 
4 0 0 5 
0 0 0 0 
0 0 0 0 
END
0 0 11 5 
0 0 11 0 
0 4 0 0 
0 0 0 0 
END
0 3 0 0 
3 0 0 0 
0 0 0 0 
0 3 3 0 
END
11 0 0 3 
0 0 0 0 
0 0 0 0 
0 0 11 1 
END
0 5 0 0 
0 0 0 5 
4 0 0 4 
0 0 0 0 
END
0 0 0 0 
0 0 0 0 
0 3 1 0 
0 5 0 5 
END
0 0 4 5 
2 11 0 0 
0 0 0 0 
0 0 0 0 
END
0 0 0 0 
0 0 11 0 
0 0 0 0 
1 0 0 5 
END
11 11 0 0 
0 0 1 3 
0 0 0 0 
0 0 0 0 
END
0 0 5 0 
0 0 0 0 
0 0 0 0 
4 5 0 0 
END
1 0 0 0 
2 0 0 0 
0 2 0 0 
0 0 0 5 
END
0 0 0 0 
11 0 11 0 
0 4 0 0 
0 0 11 0 
END
0 0 4 0 
0 2 0 0 
0 0 0 0 
0 0 0 2 
END
0 0 0 0 
0 5 0 0 
11 0 11 0 
0 0 2 0 
END
0 5 4 0 
0 0 0 0 
0 3 0 0 
11 0 0 0 
END
0 11 0 1 
0 0 0 0 
0 0 0 0 
1 11 0 0 
END
11 0 0 0 
2 0 0 11 
0 0 5 0 
0 0 0 0 
END
0 0 0 0 
0 0 0 4 
11 0 0 0 
0 4 1 0 
END
0 0 11 0 
0 11 0 0 
0 0 0 0 
0 0 3 4 
END
11 0 4 5 
0 0 0 0 
0 0 0 0 
0 11 0 0 
END
11 0 0 0 
0 0 0 2 
2 0 4 0 
0 0 0 0 
END
0 0 0 0 
0 0 11 0 
0 0 4 0 
0 0 11 0 
END
0 5 0 11 
0 0 4 0 
0 0 11 0 
0 0 0 0 
END
0 0 0 0 
0 0 2 0 
0 0 4 0 
0 5 5 0 
END
4 1 0 0 
0 0 3 0 
0 0 0 0 
0 0 0 0 
END
0 0 0 4 
5 0 0 0 
0 0 0 0 
1 11 0 0 
END
0 4 0 0 
1 0 0 5 
0 0 5 0 
0 0 0 0 
END
0 0 0 0 
11 0 0 0 
5 4 0 0 
0 0 0 0 
END
11 0 0 0 
4 0 0 0 
4 0 0 0 
11 0 0 0 
END
0 0 0 4 
0 5 0 0 
0 11 11 0 
0 0 0 0 
END
0 0 0 3 
0 0 0 5 
0 0 4 0 
0 0 0 3 
END
3 0 0 0 
0 0 0 0 
2 0 0 0 
0 3 0 0 
END
5 0 0 0 
0 4 0 0 
0 0 11 0 
0 0 0 5 
END
0 0 0 0 
5 0 0 0 
0 0 0 1 
0 1 5 0 
END
0 0 0 0 
0 5 0 0 
0 11 0 0 
0 0 11 4 
END
0 11 0 11 
0 0 0 0 
0 0 0 2 
0 0 11 0 
END
0 0 11 0 
4 0 0 0 
0 4 0 0 
0 0 2 0 
END
0 1 0 0 
0 0 0 0 
0 5 5 0 
0 0 0 0 
END
0 0 0 0 
2 2 0 0 
0 0 0 0 
0 0 2 0 
END
0 0 11 0 
0 0 0 0 
3 0 0 5 
0 0 0 0 
END
0 0 0 2 
0 2 0 0 
0 0 0 0 
0 11 0 2 
END
0 0 3 0 
0 0 0 0 
5 0 0 0 
0 11 0 11 
END
2 0 0 0 
0 0 0 5 
4 0 4 0 
0 0 0 0 
END
0 0 0 0 
1 5 4 0 
0 0 0 0 
2 0 0 0 
END
0 11 0 4 
5 0 0 0 
0 0 11 0 
0 0 0 0 
END
0 4 0 0 
0 3 0 0 
0 0 0 0 
0 2 3 0 
END
0 0 0 0 
0 3 0 0 
11 0 5 0 
0 5 0 0 
END
0 0 0 0 
0 0 0 0 
0 5 11 0 
4 4 0 0 
END
0 3 0 0 
0 11 0 0 
4 0 0 0 
11 0 0 0 
END
3 4 0 0 
4 0 0 0 
2 0 0 0 
0 0 0 0 
END
2 0 0 0 
0 0 0 5 
0 0 4 0 
11 0 0 0 
END
5 0 0 0 
0 0 0 0 
0 0 0 11 
4 0 2 0 
END
0 1 0 0 
0 0 0 11 
0 0 0 11 
0 0 0 0 
END
5 0 0 0 
5 0 0 0 
0 0 0 0 
0 0 5 1 
END
2 0 0 0 
0 1 0 0 
0 0 4 0 
5 0 0 0 
END
0 0 0 5 
0 0 0 5 
11 0 0 11 
0 0 0 0 
END
2 0 0 11 
0 0 0 0 
3 0 0 1 
0 0 0 0 
END
4 0 0 0 
0 0 0 0 
0 0 0 0 
0 3 5 0 
END
0 11 0 0 
11 3 0 0 
0 0 0 0 
0 0 0 5 
END
0 0 0 4 
0 0 4 0 
0 0 5 0 
0 0 1 0 
END
0 0 4 0 
0 0 1 0 
0 0 0 2 
0 0 2 0 
END
1 0 0 5 
0 0 0 11 
0 0 0 0 
0 0 5 0 
END
0 0 0 0 
0 0 0 1 
2 0 0 0 
11 4 0 0 
END
0 0 5 0 
4 0 0 0 
0 2 5 0 
0 0 0 0 
END
0 0 0 0 
0 0 0 0 
0 0 2 4 
0 0 11 0 
END
5 0 0 0 
0 0 0 0 
0 0 5 0 
0 0 1 1 
END
0 0 0 0 
0 0 0 0 
0 4 3 11 
0 0 0 11 
END
0 2 4 0 
0 0 0 0 
5 0 4 0 
0 0 0 0 
END
0 0 0 0 
0 0 0 1 
0 1 4 0 
0 0 4 0 
END
0 0 3 0 
0 2 0 0 
0 0 0 1 
0 0 4 0 
END
0 0 0 0 
0 0 0 4 
1 0 0 0 
0 11 3 0 
END
11 0 0 0 
0 0 4 0 
5 0 0 0 
0 4 0 0 
END
5 0 11 0 
3 0 0 0 
0 0 0 0 
0 0 0 0 
END
0 0 0 2 
0 3 0 5 
0 0 0 0 
5 0 0 0 
END
0 0 1 0 
0 0 0 0 
0 4 0 4 
0 2 0 0 
END
0 0 0 5 
11 0 0 0 
5 0 0 0 
0 0 3 0 
END
0 0 5 0 
11 0 0 0 
0 0 0 11 
0 0 1 0 
END
0 4 11 0 
0 0 0 0 
1 0 0 0 
1 0 0 0 
END
5 0 0 0 
0 4 0 0 
0 4 0 0 
0 0 0 11 
END
5 0 0 0 
0 0 0 1 
5 0 0 0 
0 4 0 0 
END
0 0 0 3 
0 0 4 0 
0 11 0 0 
0 4 0 0 
END
11 0 0 0 
0 0 4 0 
3 0 0 0 
0 0 0 5 
END
0 2 0 11 
0 0 0 11 
0 0 11 0 
0 0 0 0 
END
0 1 0 0 
0 5 0 5 
0 4 0 0 
0 0 0 0 
END
1 0 0 0 
0 5 0 4 
0 0 2 0 
0 0 0 0 
END
0 3 0 0 
0 0 4 0 
0 11 0 0 
5 0 0 0 
END
11 0 0 0 
0 5 0 0 
0 0 0 0 
0 11 0 0 
END
0 0 0 0 
0 4 0 0 
5 4 0 11 
0 0 0 0 
END
0 0 0 11 
0 3 0 0 
0 5 0 0 
11 0 0 0 
END
0 11 0 0 
0 0 11 0 
0 0 0 5 
4 0 0 0 
END
5 0 0 0 
3 0 0 0 
11 0 0 0 
0 0 0 1 
END
0 0 0 4 
0 5 0 0 
0 0 0 0 
0 0 0 4 
END
4 5 0 0 
0 2 0 0 
0 0 0 0 
0 2 0 0 
END
1 0 0 2 
0 0 3 0 
4 0 0 0 
0 0 0 0 
END
0 0 0 0 
11 0 0 0 
5 1 0 0 
4 0 0 0 
END
0 0 0 0 
0 0 0 0 
11 0 0 4 
5 0 0 0 
END
0 0 0 0 
3 3 4 0 
0 11 0 0 
0 0 0 0 
END
0 11 0 11 
0 0 0 0 
3 0 0 0 
0 0 0 5 
END
0 0 5 0 
0 0 0 0 
0 0 0 5 
11 0 0 0 
END
0 0 0 0 
4 0 0 4 
5 1 0 0 
0 0 0 0 
END
0 0 0 0 
0 0 0 0 
0 4 0 0 
0 1 0 2 
END
0 0 0 0 
4 0 0 0 
0 0 0 5 
0 5 4 0 
END
0 0 0 1 
4 0 1 0 
0 0 0 0 
0 0 0 5 
END
0 2 0 0 
0 4 0 0 
0 4 0 4 
0 0 0 0 
END
0 0 0 0 
4 0 1 4 
0 0 0 4 
0 0 0 0 
END
5 0 0 1 
0 1 0 0 
0 0 0 0 
11 0 0 0 
END
0 0 0 0 
11 5 0 0 
0 5 0 0 
0 11 0 0 
END
0 0 0 3 
0 0 0 0 
0 1 0 0 
11 0 0 1 
END
0 0 0 0 
0 0 0 0 
0 0 0 4 
0 4 11 11 
END
0 0 0 0 
0 0 0 0 
11 0 2 4 
5 0 0 0 
END
0 0 0 0 
0 11 5 0 
0 11 0 0 
0 0 0 0 
END
0 0 0 0 
11 2 0 0 
0 0 0 0 
0 5 0 0 
END
5 0 0 0 
0 0 5 0 
0 0 0 0 
1 0 0 0 
END
0 0 11 0 
0 0 0 0 
0 11 0 0 
0 0 11 1 
END
0 0 0 0 
0 2 0 4 
0 0 5 2 
0 0 0 0 
END
0 0 11 0 
0 0 0 0 
0 0 0 0 
0 4 4 5 
END
0 4 0 11 
0 0 0 0 
0 0 4 0 
0 4 0 0 
END
0 0 0 0 
11 0 0 0 
0 0 0 0 
3 0 11 0 
END
0 0 5 0 
0 0 0 0 
0 0 3 11 
0 0 2 0 
END
0 0 0 0 
1 0 5 0 
0 0 0 0 
11 0 0 11 
END
0 0 0 0 
0 0 0 1 
0 11 0 0 
11 0 0 0 
END
0 4 0 0 
0 0 0 0 
0 11 5 0 
5 0 0 0 
END
5 0 0 0 
5 0 5 0 
2 0 0 0 
0 0 0 0 
END
0 4 0 0 
0 0 0 0 
0 0 2 5 
0 0 5 0 
END
0 0 0 5 
0 0 0 0 
0 0 3 0 
0 4 0 0 
END
0 0 5 0 
0 0 3 0 
3 0 0 0 
0 0 1 0 
END
0 0 4 0 
0 0 0 0 
0 4 0 0 
0 0 0 1 
END
0 0 0 0 
11 0 0 2 
11 0 0 0 
1 0 0 0 
END
0 0 0 0 
0 0 0 5 
0 2 0 0 
0 3 0 0 
END
5 0 1 5 
11 0 0 0 
0 0 0 0 
0 0 0 0 
END
11 0 11 0 
11 0 0 0 
0 0 0 0 
0 0 5 0 
END
0 0 0 0 
0 0 0 1 
0 11 0 11 
0 2 0 0 
END
5 0 0 11 
0 11 0 0 
0 0 0 0 
0 0 3 0 
END
0 0 0 0 
1 5 0 0 
0 0 0 0 
11 0 0 0 
END
0 0 5 0 
0 3 0 2 
0 11 0 0 
0 0 0 0 
END
4 0 0 0 
0 5 0 0 
5 0 0 0 
0 0 0 5 
END
4 0 0 4 
11 0 0 0 
11 0 0 0 
0 0 0 0 
END
4 0 0 0 
0 0 0 5 
0 0 11 0 
0 0 0 5 
END
0 0 0 0 
0 0 11 0 
2 1 0 0 
2 0 0 0 
END
0 0 0 0 
4 0 0 0 
0 2 0 0 
0 5 0 0 
END
2 0 0 0 
0 0 3 0 
5 0 0 3 
0 0 0 0 
END
0 0 11 3 
0 0 0 0 
0 0 0 0 
0 2 4 0 
END
0 0 0 0 
0 0 11 11 
0 0 0 0 
11 0 0 11 
END
0 0 11 4 
0 1 4 0 
0 0 0 0 
0 0 0 0 
END
0 0 0 4 
0 0 0 11 
2 0 0 0 
0 0 1 0 
END
0 0 4 0 
0 11 4 0 
0 0 0 0 
11 0 0 0 
END
4 0 11 0 
1 0 0 5 
0 0 0 0 
0 0 0 0 
END
1 0 1 0 
0 0 0 0 
11 0 0 0 
0 0 0 4 
END
4 0 0 0 
11 0 0 0 
0 5 0 1 
0 0 0 0 
END
0 0 4 0 
3 0 0 0 
0 0 11 0 
0 0 0 4 
END
0 3 0 0 
0 0 1 0 
0 0 0 0 
0 5 0 0 
END
0 0 0 0 
0 0 5 0 
0 0 0 0 
0 0 1 11 
END
0 0 1 0 
0 5 0 0 
11 0 0 0 
5 0 0 0 
END
0 0 0 0 
5 0 0 0 
11 0 0 11 
0 11 0 0 
END
0 3 1 0 
0 0 0 0 
0 5 0 0 
0 11 0 0 
END
0 5 0 0 
0 0 0 0 
11 4 0 5 
0 0 0 0 
END
0 5 0 0 
0 0 0 11 
0 5 0 0 
0 1 0 0 
END
0 4 2 0 
0 0 3 0 
0 0 0 0 
0 0 0 2 
END
0 4 0 0 
1 0 0 0 
0 0 3 0 
0 0 0 3 
END
0 0 0 0 
2 0 1 0 
0 0 0 0 
2 0 4 0 
END
0 0 0 4 
0 0 0 0 
4 0 0 11 
0 0 5 0 
END
0 11 0 1 
0 0 1 0 
0 0 1 0 
0 0 0 0 
END
0 0 1 0 
0 2 0 0 
0 5 0 0 
0 0 11 0 
END
5 0 0 0 
0 0 0 0 
0 4 0 11 
0 11 0 0 
END
0 0 4 5 
0 0 0 0 
0 0 0 0 
3 0 0 0 
END
11 0 2 0 
0 0 0 0 
0 0 5 11 
0 0 0 0 
END
0 2 0 0 
0 0 0 5 
0 0 0 0 
11 0 0 0 
END
5 0 0 0 
0 0 3 5 
0 5 0 0 
0 0 0 0 
END
0 0 0 0 
0 0 0 0 
0 4 0 5 
4 4 0 0 
END
0 0 2 0 
0 0 5 5 
0 0 0 0 
0 0 0 0 
END
0 5 0 0 
0 4 0 0 
0 0 0 0 
0 11 4 0 
END
0 1 0 0 
0 1 0 0 
0 3 0 0 
0 0 0 2 
END
0 0 0 0 
0 0 0 0 
0 4 4 5 
5 0 0 0 
END
0 0 0 0 
0 0 0 0 
4 4 0 4 
4 0 0 0 
END
0 5 0 0 
5 0 0 0 
0 0 0 11 
0 0 0 1 
END
0 0 0 4 
0 0 0 0 
2 0 0 1 
0 11 0 0 
END
0 0 2 0 
11 0 0 5 
0 0 0 5 
0 0 0 0 
END
2 0 0 4 
0 0 5 0 
0 0 0 0 
0 0 0 0 
END
0 5 0 0 
0 5 0 0 
0 3 0 0 
0 0 0 4 
END
0 11 0 0 
0 0 4 0 
11 0 0 0 
0 0 4 0 
END
0 0 0 0 
0 0 5 0 
11 4 5 0 
0 0 0 0 
END
0 0 1 0 
1 0 0 0 
0 0 0 1 
0 11 0 0 
END
1 0 0 4 
0 0 1 5 
0 0 0 0 
0 0 0 0 
END
5 1 11 0 
0 0 4 0 
0 0 0 0 
0 0 0 0 
END
4 0 0 0 
0 0 1 0 
0 0 0 4 
0 0 0 0 
END
0 0 0 4 
0 0 0 0 
2 0 0 2 
0 0 0 0 
END
0 0 0 0 
11 5 0 0 
0 0 4 0 
0 0 0 0 
END
0 2 0 5 
0 0 0 0 
0 0 11 0 
0 0 1 0 
END
5 0 0 0 
1 4 0 0 
0 0 0 0 
0 0 0 2 
END
0 11 0 0 
0 5 0 0 
11 0 0 0 
0 0 11 0 
END
0 0 0 0 
0 0 0 3 
0 11 0 0 
5 5 0 0 
END
0 0 0 11 
0 2 0 0 
0 0 4 0 
1 0 0 0 
END
0 1 0 0 
0 0 0 0 
0 2 0 11 
0 0 4 0 
END
0 2 0 0 
0 0 11 0 
0 5 0 0 
3 0 0 0 
END
0 11 0 0 
0 0 0 0 
0 2 0 0 
0 0 0 5 
END
0 0 3 0 
0 0 0 0 
5 11 0 0 
0 0 0 4 
END
11 3 0 0 
0 0 0 0 
11 0 0 0 
0 11 0 0 
END
0 0 11 5 
0 0 0 0 
0 0 0 1 
0 0 0 5 
END
0 0 0 0 
0 5 0 0 
4 0 11 0 
0 0 0 0 
END
0 0 0 0 
0 0 0 0 
11 0 0 2 
0 4 0 5 
END
0 11 2 0 
0 0 0 0 
0 11 0 0 
0 0 0 3 
END
0 0 0 0 
4 0 0 0 
0 0 4 0 
0 4 0 0 
END
0 0 2 0 
0 0 0 0 
0 3 5 0 
0 1 0 0 
END
0 0 4 0 
0 0 0 11 
1 0 0 0 
0 5 0 0 
END
0 0 5 0 
2 0 0 0 
0 0 5 11 
0 0 0 0 
END
0 0 0 5 
5 0 2 0 
4 0 0 0 
0 0 0 0 
END
0 4 3 0 
0 0 0 0 
5 0 0 0 
0 0 0 0 
END
0 0 0 0 
5 0 0 0 
1 0 11 0 
11 0 0 0 
END
0 0 0 5 
0 0 0 0 
5 3 0 5 
0 0 0 0 
END
0 0 0 0 
0 1 0 2 
0 4 11 0 
0 0 0 0 
END
0 0 0 5 
0 0 0 0 
0 3 0 0 
0 0 2 0 
END
0 0 5 11 
11 0 4 0 
0 0 0 0 
0 0 0 0 
END
3 0 0 0 
0 5 4 0 
0 0 0 0 
0 0 0 0 
END
0 11 0 0 
1 0 3 0 
0 0 0 0 
0 0 0 11 
END
0 3 0 0 
0 1 0 0 
0 0 0 0 
0 0 4 0 
END
0 11 0 1 
0 0 0 0 
0 5 0 5 
0 0 0 0 
END
11 0 0 3 
0 0 0 0 
11 0 0 0 
0 0 0 0 
END
0 4 4 0 
0 0 0 0 
4 0 0 0 
0 11 0 0 
END
0 0 0 0 
0 11 3 2 
0 0 1 0 
0 0 0 0 
END
0 0 0 0 
5 0 2 0 
0 4 0 4 
0 0 0 0 
END
0 1 0 11 
0 0 0 0 
0 0 0 0 
0 11 11 0 
END
0 0 0 0 
0 0 5 0 
0 0 0 4 
4 0 0 0 
END
0 0 0 0 
5 0 0 11 
3 0 0 0 
0 0 4 0 
END
4 0 11 1 
0 4 0 0 
0 0 0 0 
0 0 0 0 
END
0 2 0 0 
3 0 5 0 
0 0 0 2 
0 0 0 0 
END
0 0 1 1 
0 0 1 0 
3 0 0 0 
0 0 0 0 
END
0 0 0 0 
0 1 1 0 
0 2 0 0 
0 1 0 0 
END
4 11 0 0 
1 0 0 5 
0 0 0 0 
0 0 0 0 
END
0 0 0 0 
0 4 0 0 
0 0 11 0 
1 0 3 0 
END
4 0 0 1 
0 0 3 0 
0 0 0 0 
0 11 0 0 
END
5 0 11 0 
0 2 0 0 
0 0 0 0 
0 0 0 0 
END
0 3 0 0 
0 0 5 0 
4 0 0 0 
11 0 0 0 
END
0 11 2 0 
0 0 0 0 
0 0 0 3 
0 0 4 0 
END
0 0 0 0 
0 11 0 0 
11 0 5 0 
11 0 0 0 
END
0 0 0 5 
0 0 0 0 
0 0 0 4 
1 0 3 0 
END
0 0 0 0 
0 11 11 5 
0 0 0 0 
0 2 0 0 
END
0 0 0 4 
0 0 0 0 
0 2 0 0 
0 4 0 4 
END
0 0 0 3 
3 0 11 0 
0 0 0 0 
11 0 0 0 
END
0 0 0 0 
0 5 0 11 
0 0 0 1 
0 0 0 11 
END
0 0 0 0 
0 0 0 0 
0 2 5 0 
0 11 0 0 
END
11 0 0 0 
0 11 0 0 
0 0 5 1 
0 0 0 0 
END
0 11 0 0 
0 0 0 0 
11 5 0 0 
0 0 0 11 
END
0 0 1 0 
0 0 0 3 
0 0 0 4 
0 0 0 4 
END
0 0 0 4 
0 0 0 0 
0 0 0 1 
0 11 0 5 
END
0 0 0 0 
3 4 0 0 
4 0 0 0 
0 11 0 0 
END
0 0 0 0 
0 0 0 2 
0 0 11 0 
4 0 0 4 
END
5 4 0 0 
0 0 0 0 
11 0 0 0 
0 0 2 0 
END
0 0 0 4 
0 0 0 0 
4 0 11 0 
0 0 0 0 
END
0 3 0 0 
0 4 2 0 
0 0 0 0 
5 0 0 0 
END
0 0 0 1 
11 0 0 0 
0 3 0 0 
0 0 0 0 
END
0 0 0 0 
0 11 0 0 
0 5 0 0 
0 0 3 0 
END
1 0 0 0 
0 0 11 0 
5 0 0 0 
0 0 0 0 
END
2 0 0 0 
0 0 1 0 
0 0 0 5 
0 0 4 0 
END
1 0 0 0 
0 0 5 0 
0 0 0 0 
4 0 1 0 
END
0 0 11 0 
3 1 0 0 
0 0 0 0 
11 0 0 0 
END
0 0 0 0 
0 0 0 4 
0 0 0 0 
0 11 5 4 
END
0 0 3 11 
0 0 0 0 
0 0 5 0 
0 0 0 5 
END
0 0 1 0 
0 0 4 0 
0 0 0 0 
0 4 0 0 
END
0 0 11 4 
3 0 0 0 
11 0 0 0 
0 0 0 0 
END
0 3 0 11 
0 0 0 0 
0 0 2 4 
0 0 0 0 
END
0 0 0 11 
0 0 5 0 
0 0 2 0 
0 0 0 1 
END
1 0 0 1 
0 11 0 0 
0 0 0 0 
0 5 0 0 
END
0 0 0 0 
11 0 0 0 
11 0 0 0 
0 2 0 0 
END
0 0 0 0 
0 0 0 0 
0 11 1 11 
0 0 0 3 
END
2 0 4 0 
0 11 5 0 
0 0 0 0 
0 0 0 0 
END
4 0 0 0 
0 0 11 0 
0 0 11 0 
5 0 0 0 
END
0 11 3 0 
0 0 0 5 
0 3 0 0 
0 0 0 0 
END
11 2 0 0 
0 0 0 0 
0 0 0 5 
0 2 0 0 
END
5 0 11 0 
0 0 0 11 
0 0 0 0 
5 0 0 0 
END
0 0 0 0 
0 0 0 11 
0 4 11 0 
0 2 0 0 
END
4 0 0 0 
0 0 0 0 
1 0 0 5 
0 0 0 0 
END
0 0 0 1 
0 0 2 0 
0 0 5 0 
0 0 11 0 
END
1 0 0 0 
0 0 0 11 
0 0 4 0 
0 0 0 5 
END
0 4 0 0 
0 0 0 0 
0 0 5 0 
0 0 4 0 
END
0 0 5 0 
0 0 0 5 
5 2 0 0 
0 0 0 0 
END
0 0 1 1 
5 0 0 0 
0 0 0 0 
0 4 0 0 
END
0 11 0 0 
0 0 11 0 
0 0 0 0 
2 5 0 0 
END
0 0 0 0 
0 0 0 3 
5 0 0 11 
5 0 0 0 
END
0 11 0 0 
11 0 0 11 
0 0 0 5 
0 0 0 0 
END
0 0 0 0 
0 11 0 0 
2 0 0 0 
2 0 0 0 
END
0 0 0 3 
4 0 5 0 
0 0 0 0 
0 0 2 0 
END
0 0 0 0 
0 0 0 0 
0 5 0 5 
11 0 0 0 
END
0 0 5 0 
0 0 0 3 
4 0 0 0 
0 0 0 4 
END
4 0 0 3 
0 0 0 0 
0 5 2 0 
0 0 0 0 
END
0 5 0 0 
0 0 0 11 
0 1 0 0 
1 0 0 0 
END
0 0 0 0 
0 0 0 0 
5 0 0 3 
0 2 5 0 
END
0 5 0 0 
0 0 0 2 
0 0 0 0 
0 0 11 0 
END
3 3 0 0 
0 0 0 0 
0 4 2 0 
0 0 0 0 
END
4 0 1 4 
0 0 0 0 
1 0 0 0 
0 0 0 0 
END
0 0 0 4 
0 0 0 4 
0 0 0 0 
3 2 0 0 
END
0 0 0 0 
0 5 0 0 
4 0 4 11 
0 0 0 0 
END
0 0 0 2 
0 4 0 5 
0 0 0 0 
0 0 0 0 
END
0 0 0 0 
0 5 0 0 
0 0 3 0 
4 0 4 0 
END
0 0 0 0 
11 0 11 0 
0 11 5 0 
0 0 0 0 
END
3 0 0 3 
0 0 0 0 
0 0 0 3 
0 5 0 0 
END
1 0 5 0 
0 0 0 0 
0 0 0 0 
0 5 0 0 
END
0 5 0 0 
0 0 4 0 
0 0 0 0 
11 0 4 0 
END
3 0 0 0 
0 0 0 0 
0 3 4 0 
3 0 0 0 
END
0 0 0 0 
0 0 4 0 
0 0 3 2 
0 0 0 0 
END
0 0 3 0 
0 0 0 0 
0 0 0 0 
5 11 0 0 
END
5 0 0 0 
2 0 0 0 
0 4 0 0 
0 5 0 0 
END
4 0 0 0 
0 0 0 0 
0 0 11 0 
0 3 0 11 
END
0 1 0 0 
0 11 0 0 
0 3 0 0 
4 0 0 0 
END
0 0 0 0 
0 0 0 0 
11 0 0 4 
3 0 0 0 
END
5 11 0 0 
0 0 0 0 
0 0 0 5 
5 0 0 0 
END
0 0 0 0 
0 1 0 0 
3 5 4 0 
0 0 0 0 
END
0 4 0 0 
0 0 0 0 
0 5 0 4 
0 1 0 0 
END
0 0 0 0 
11 0 11 4 
0 0 0 0 
4 0 0 0 
END
3 0 0 0 
0 4 0 0 
0 0 0 4 
5 0 0 0 
END
0 0 0 11 
0 0 0 0 
0 3 0 0 
4 0 0 0 
END
0 0 11 0 
0 5 4 0 
0 5 0 0 
0 0 0 0 
END
0 0 0 0 
0 0 0 0 
11 0 5 0 
0 0 11 11 
END
0 0 0 0 
0 0 2 0 
0 2 11 11 
0 0 0 0 
END
0 0 0 0 
0 0 0 0 
0 11 0 0 
0 0 1 2 
END
0 0 0 0 
0 1 5 0 
0 0 0 3 
0 0 0 1 
END
0 0 0 0 
0 4 0 5 
0 0 0 0 
4 11 0 0 
END
0 0 0 0 
0 11 3 0 
0 0 0 0 
5 11 0 0 
END
0 11 0 0 
0 0 0 0 
0 0 11 11 
0 4 0 0 
END
4 0 5 0 
0 0 0 0 
0 11 0 0 
5 0 0 0 
END
0 0 0 0 
0 11 0 0 
2 0 0 2 
5 0 0 0 
END
0 0 2 0 
1 0 0 5 
0 0 0 0 
0 0 0 4 
END
0 2 3 0 
0 0 4 0 
0 0 0 0 
0 0 0 0 
END
4 4 0 0 
0 0 3 0 
0 0 0 0 
0 5 0 0 
END
0 0 0 5 
0 0 0 11 
5 5 0 0 
0 0 0 0 
END
4 0 11 0 
0 0 0 4 
0 0 0 5 
0 0 0 0 
END
0 0 4 0 
0 3 0 0 
0 0 0 0 
0 2 5 0 
END
0 0 0 0 
0 0 0 0 
4 0 0 2 
0 2 0 0 
END
5 0 11 0 
0 0 0 0 
0 0 11 0 
0 0 0 11 
END
0 0 0 0 
0 0 4 0 
0 0 0 1 
0 4 4 0 
END
0 0 11 0 
0 0 4 4 
0 0 11 0 
0 0 0 0 
END
0 11 0 0 
5 0 0 0 
11 0 0 5 
0 0 0 0 
END
0 0 5 0 
0 0 0 5 
0 0 0 0 
0 3 11 0 
END
0 0 5 0 
0 0 0 0 
0 0 4 0 
0 0 0 11 
END
0 11 0 0 
0 0 0 2 
0 4 0 0 
0 0 0 0 
END
0 0 11 0 
0 0 0 0 
5 0 11 0 
0 5 0 0 
END
0 11 0 4 
0 0 4 0 
0 0 0 0 
0 0 4 0 
END
0 0 0 0 
0 0 0 11 
0 0 5 0 
0 0 11 1 
END
0 4 0 0 
0 0 11 5 
0 0 0 0 
0 0 0 5 
END
0 11 2 0 
0 0 3 0 
0 0 0 0 
0 0 0 0 
END
0 0 0 0 
0 0 4 2 
0 0 0 0 
0 0 5 2 
END
0 11 11 0 
0 0 0 0 
0 0 0 2 
0 0 4 0 
END
0 0 0 11 
11 4 0 0 
0 0 0 0 
0 0 0 4 
END
3 0 0 0 
3 1 0 0 
1 0 0 0 
0 0 0 0 
END
0 0 0 0 
0 0 0 11 
0 0 11 5 
0 0 0 0 
END
11 0 0 3 
0 4 5 0 
0 0 0 0 
0 0 0 0 
END
0 0 0 0 
0 11 0 1 
3 4 0 0 
0 0 0 0 
END
1 2 0 0 
0 4 0 0 
0 0 0 0 
0 0 0 1 
END
4 0 0 0 
0 0 0 0 
0 0 0 11 
2 0 0 2 
END
11 0 0 1 
0 1 0 0 
0 0 0 0 
0 0 0 5 
END
0 0 0 0 
11 0 0 0 
0 0 0 11 
0 3 5 0 
END
11 1 0 0 
0 0 0 0 
5 0 0 5 
0 0 0 0 
END
0 11 0 0 
0 0 11 0 
0 1 0 0 
0 0 4 0 
END
11 0 5 0 
0 0 0 4 
0 0 11 0 
0 0 0 0 
END
0 0 0 0 
4 4 0 3 
0 0 0 0 
0 5 0 0 
END
0 11 0 0 
0 0 0 0 
11 0 0 0 
0 0 2 11 
END
0 0 0 0 
2 5 2 0 
11 0 0 0 
0 0 0 0 
END
0 3 0 0 
0 0 4 11 
0 0 0 0 
4 0 0 0 
END
5 11 0 0 
0 5 0 0 
0 0 0 0 
0 0 0 2 
END
0 0 0 3 
0 0 0 4 
11 0 0 4 
0 0 0 0 
END
3 0 11 0 
0 0 0 0 
0 0 0 2 
0 0 11 0 
END
0 0 0 5 
0 0 0 0 
0 4 0 0 
2 0 0 0 
END
0 11 0 0 
0 0 0 0 
0 0 11 0 
0 0 11 11 
END
0 5 0 0 
3 11 0 0 
5 0 0 0 
0 0 0 0 
END
0 0 0 0 
2 0 0 0 
1 3 0 5 
0 0 0 0 
END
0 0 0 0 
0 0 0 0 
0 11 0 0 
0 2 0 3 
END
0 0 4 0 
0 0 0 2 
3 0 0 0 
11 0 0 0 
END
0 0 0 0 
3 0 0 0 
0 5 0 0 
0 0 2 11 
END
0 0 0 0 
4 0 4 0 
0 0 4 0 
11 0 0 0 
END
0 0 0 0 
1 0 0 3 
0 0 0 0 
0 0 5 4 
END
11 0 0 0 
0 0 11 0 
0 0 4 0 
0 4 0 0 
END
0 0 4 3 
0 0 0 11 
0 0 0 0 
0 0 11 0 
END
0 4 0 0 
0 0 0 11 
4 0 0 0 
0 5 0 0 
END
0 0 0 3 
0 0 4 0 
5 0 0 3 
0 0 0 0 
END
0 0 0 0 
0 0 0 3 
0 0 2 11 
0 0 4 0 
END
0 0 0 2 
0 0 0 0 
0 0 0 5 
11 0 11 0 
END
0 0 0 0 
5 0 0 0 
0 0 4 0 
0 0 5 1 
END
0 4 5 0 
0 0 1 0 
0 0 0 0 
0 11 0 0 
END
0 0 5 0 
0 0 0 0 
0 11 0 0 
5 0 0 0 
END
0 0 0 0 
0 1 0 4 
11 2 0 0 
0 0 0 0 
END
0 0 4 0 
0 0 0 0 
0 0 11 0 
0 2 0 0 
END
0 0 3 0 
0 0 0 0 
0 0 5 0 
0 3 0 4 
END
5 0 0 0 
0 0 0 0 
0 0 2 5 
4 0 0 0 
END
0 0 5 0 
0 0 0 0 
0 0 11 0 
11 3 0 0 
END
2 3 0 0 
11 0 0 0 
0 0 0 0 
0 0 0 11 
END
0 0 0 0 
0 4 0 5 
0 0 0 0 
0 0 3 3 
END
5 0 2 0 
0 0 0 0 
0 1 0 0 
0 3 0 0 
END
0 0 0 0 
0 0 0 3 
0 2 0 0 
0 11 0 4 
END
4 0 0 0 
0 11 3 0 
0 0 11 0 
0 0 0 0 
END
0 0 0 0 
0 3 0 0 
0 5 4 0 
0 0 0 4 
END
0 2 0 0 
0 5 0 0 
0 4 0 0 
0 0 5 0 
END
3 0 0 0 
0 0 0 3 
0 0 5 4 
0 0 0 0 
END
0 0 11 5 
0 11 0 0 
0 0 0 0 
5 0 0 0 
END
0 0 0 0 
4 0 4 0 
0 0 0 0 
0 11 11 0 
END
0 0 0 0 
0 11 0 3 
0 11 0 0 
0 0 4 0 
END
0 0 0 0 
1 0 0 0 
1 0 2 0 
0 0 0 0 
END
0 4 0 5 
0 0 0 0 
0 0 0 0 
5 0 0 0 
END
0 0 11 0 
0 0 0 0 
0 11 0 11 
1 0 0 0 
END
3 5 0 0 
0 0 0 0 
3 0 0 0 
1 0 0 0 
END
4 0 0 0 
4 0 0 0 
0 4 0 0 
0 0 0 11 
END
0 0 4 0 
0 0 0 0 
0 5 0 0 
3 0 0 0 
END
0 0 0 1 
5 3 0 0 
0 0 0 0 
0 0 0 0 
END
2 0 0 0 
0 0 0 11 
4 0 0 0 
0 1 0 0 
END
11 0 0 0 
4 0 0 0 
0 5 0 0 
4 0 0 0 
END
0 4 0 0 
0 0 0 0 
1 11 0 0 
1 0 0 0 
END
0 0 0 0 
0 0 0 5 
0 4 0 0 
2 0 4 0 
END
0 0 0 0 
0 11 11 0 
0 0 5 0 
0 5 0 0 
END
0 3 0 0 
0 0 0 4 
3 0 0 0 
0 4 0 0 
END
0 0 0 0 
0 0 0 3 
11 11 0 0 
0 0 0 11 
END
0 11 0 0 
0 0 2 0 
0 0 4 0 
0 0 0 0 
END
0 0 0 0 
0 0 0 0 
4 11 4 0 
0 0 5 0 
END
0 0 5 0 
0 3 0 0 
0 0 3 0 
0 5 0 0 
END
3 0 11 0 
0 0 0 0 
0 0 0 0 
0 0 11 4 
END
0 5 0 0 
0 0 0 0 
0 4 0 1 
0 0 0 1 
END
0 3 0 0 
0 11 11 0 
0 0 0 0 
11 0 0 0 
END
5 0 5 4 
0 0 0 0 
0 0 11 0 
0 0 0 0 
END
4 0 0 0 
0 0 0 0 
0 0 0 0 
5 0 0 5 
END
0 11 0 0 
0 0 0 0 
0 3 0 0 
11 11 0 0 
END
0 0 0 0 
0 0 0 2 
0 0 0 11 
0 0 4 0 
END
0 0 0 4 
11 0 2 0 
0 3 0 0 
0 0 0 0 
END
11 0 5 0 
0 1 0 0 
0 0 0 0 
0 2 0 0 
END
11 11 0 0 
0 0 0 0 
0 0 1 0 
0 0 1 0 
END
0 0 11 0 
0 0 3 0 
0 4 0 0 
0 0 0 0 
END
0 0 0 0 
0 0 1 4 
0 0 0 3 
0 0 0 11 
END
0 4 5 0 
0 1 0 0 
0 11 0 0 
0 0 0 0 
END
0 0 4 0 
0 4 0 0 
0 0 0 4 
4 0 0 0 
END
0 5 2 0 
0 0 0 0 
1 0 0 0 
2 0 0 0 
END
0 0 0 11 
0 0 0 11 
0 0 0 0 
5 0 0 0 
END
0 0 0 5 
0 0 0 0 
11 0 0 0 
0 1 11 0 
END
0 0 0 0 
0 11 0 4 
0 0 0 0 
0 11 0 11 
END
0 0 0 0 
4 0 0 5 
0 0 0 0 
11 0 0 11 
END
0 0 0 0 
0 5 0 0 
5 11 1 0 
0 0 0 0 
END
0 0 3 0 
0 0 0 0 
4 3 0 0 
0 0 5 0 
END
0 11 0 11 
0 2 0 0 
0 0 0 0 
0 0 5 0 
END
0 0 5 0 
0 0 3 0 
0 0 0 0 
3 0 0 5 
END
0 5 0 4 
0 0 0 0 
0 0 0 0 
0 0 3 11 
END
5 0 0 0 
11 0 0 0 
0 3 5 0 
0 0 0 0 
END
0 0 0 11 
0 0 0 0 
0 1 0 5 
0 0 0 0 
END
1 0 11 0 
0 0 0 0 
0 5 0 0 
0 0 0 0 
END
0 0 0 0 
0 0 0 0 
0 0 5 0 
4 4 0 0 
END
11 0 0 0 
0 0 0 0 
0 0 5 0 
0 0 3 0 
END
0 4 0 0 
0 0 0 0 
0 0 3 0 
2 5 0 0 
END
0 0 4 0 
5 2 0 0 
0 0 0 11 
0 0 0 0 
END
0 0 0 0 
0 0 0 0 
4 11 0 11 
0 0 11 0 
END
0 4 0 0 
0 0 0 0 
0 4 0 5 
0 0 0 0 
END
4 0 0 0 
0 0 1 0 
0 0 0 0 
0 5 5 0 
END
0 0 0 0 
0 0 0 4 
0 11 2 0 
11 0 0 0 
END
0 0 4 0 
0 0 0 0 
0 0 5 0 
11 0 0 11 
END
0 11 0 0 
0 0 0 0 
0 4 11 0 
0 11 0 0 
END
11 0 0 0 
0 0 0 0 
0 11 0 2 
0 0 0 0 
END
0 0 1 2 
0 0 0 11 
0 0 0 0 
0 0 0 11 
END
0 0 0 5 
11 0 0 0 
0 0 4 4 
0 0 0 0 
END
1 0 0 0 
0 0 0 0 
0 3 0 0 
0 2 4 0 
END
4 0 0 0 
0 11 0 0 
0 0 0 0 
0 0 5 11 
END
1 0 0 0 
0 11 0 0 
0 11 0 0 
0 0 0 4 
END
0 0 0 0 
0 4 4 0 
0 0 1 3 
0 0 0 0 
END
0 0 2 0 
4 0 4 0 
0 0 0 11 
0 0 0 0 
END
