10 16 4 10 1000
2030
0040
0000
0500
END
4005
0000
0002
0001
END
0000
0003
4000
0301
END
0303
0000
0000
0044
END
0040
0000
0502
0003
END
11020
0000
0000
11050
END
0000
110011
0000
11010
END
4000
0000
4000
04110
END
0000
0400
111100
0000
END
0000
04110
0400
5000
END
0000
0504
0000
0004
END
0000
4000
01110
0100
END
0040
0000
0003
0021
END
0014
0010
0000
0004
END
00011
01100
0004
00011
END
11000
0000
53110
0000
END
11041
0000
11000
0000
END
0005
0040
4500
0000
END
0000
00110
0000
3400
END
44110
1000
0000
0000
END
0002
0004
01100
11000
END
0000
0002
0015
0300
END
0000
00511
0200
0001
END
0000
01100
11102
0000
END
3000
0000
01105
0000
END
0300
0000
0150
11000
END
3000
0000
0300
110011
END
1005
0050
0001
0000
END
0400
0000
0500
50011
END
0400
50011
5000
0000
END
01100
5000
4000
0050
END
0120
0050
0000
1000
END
0000
110011
0030
4000
END
0000
0000
50011
5500
END
0000
1000
0000
0402
END
0000
51100
0000
3000
END
0004
0000
111100
0300
END
0000
0050
00110
01100
END
0000
00110
0030
0405
END
0000
0010
4400
11000
END
2500
0000
0000
0102
END
0000
00110
0100
4050
END
0000
4200
50011
0000
END
3050
0000
0300
0000
END
0000
0420
0005
0004
END
0000
0500
0400
0055
END
0000
0050
11005
00110
END
0000
0000
11000
3003
END
0000
0050
00011
0025
END
5000
5000
0000
0500
END
01100
0003
0040
2000
END
0000
0020
11000
40011
END
0055
11000
0000
0500
END
0200
0000
11000
0040
END
00110
0004
0000
0050
END
5250
0000
0200
0000
END
0000
0002
0300
0450
END
0042
0050
0000
0005
END
5000
01100
0000
0103
END
0000
0400
0302
3000
END
0050
0500
5000
01100
END
00011
5004
0000
01100
END
0250
00511
0000
0000
END
00110
0300
00011
0500
END
00110
5400
0000
0000
END
0050
01105
00011
0000
END
0000
01011
00011
0002
END
111100
0004
0000
4000
END
1300
0004
11000
0000
END
00110
0000
5000
0051
END
0500
0000
0004
0501
END
5500
01100
0000
0005
END
0000
0030
0002
0400
END
0000
0043
5020
0000
END
0000
111105
0000
0000
END
0000
0000
3044
0004
END
01100
04011
5000
0000
END
0000
5000
5010
0050
END
0000
0004
0000
0442
END
0020
0000
0004
00110
END
110011
1000
0000
0050
END
0000
4040
21100
0000
END
0040
110110
3000
0000
END
0005
11000
00011
0010
END
0020
0402
4000
0000
END
0002
0500
0000
1010
END
0400
00011
01104
0000
END
0000
11000
5005
0001
END
0000
1000
2300
0000
END
0032
0100
0000
0050
END
0540
0000
01100
00011
END
5000
0504
0000
3000
END
04110
0500
11000
0000
END
0000
00110
01100
04011
END
0350
0000
0005
01100
END
0000
0003
40110
00011
END
0100
0002
0000
4050
END
0001
01100
001111
0000
END
04110
0005
0000
0200
END
4000
0000
11000
0240
END
0010
0354
0000
0000
END
0000
01110
0050
0003
END
0040
0000
00011
4000
END
0242
0000
5000
0000
END
00011
110110
0000
4000
END
4550
0200
0000
0000
END
0000
5004
00110
0003
END
0005
51100
01100
0000
END
0000
0304
01100
0004
END
0000
0000
0005
01102
END
11000
0000
1300
4000
END
0000
11000
01100
0505
END
0000
0000
11040
0040
END
0501
0040
0000
00110
END
0000
0300
5000
3040
END
0044
0000
0000
00211
END
5010
0000
11000
11000
END
3000
51100
00011
0000
END
0030
01100
0500
0000
END
0110
0040
0030
0000
END
04110
0000
0044
0000
END
00011
0000
4500
11000
END
0000
00110
0000
4400
END
0000
2005
0000
3300
END
0500
1000
0300
00011
END
00110
0000
0040
0510
END
0002
4000
01100
0000
END
2100
0000
0010
0003
END
0000
0500
110311
0000
END
0000
0050
00011
4500
END
0000
00011
2000
2010
END
11000
4200
0000
11000
END
0000
0050
0105
0010
END
2001
00011
0002
0000
END
0000
0040
0002
011011
END
0001
0000
0400
0405
END
0030
0000
00011
3000
END
0045
00011
0000
0500
END
5000
11500
00110
0000
END
0000
0000
1003
5400
END
0000
0034
0000
3040
END
01100
0000
01100
01120
END
0400
0402
4000
0000
END
0000
00411
0003
0000
END
0000
0000
4000
01411
END
0043
0000
2000
0004
END
01100
0001
0000
0055
END
01100
01140
4000
0000
END
10011
0430
0000
0000
END
0000
0051
0500
5000
END
0004
3400
0000
0030
END
0000
0500
0005
0404
END
01150
0050
0000
0000
END
04110
0020
0300
0000
END
0040
0001
0000
5004
END
1200
00411
0000
0000
END
0000
11000
0003
0024
END
0004
1000
01102
0000
END
01111
00110
0000
0000
END
0000
0004
1500
0020
END
00110
0000
4014
0000
END
0300
0500
0000
0040
END
2000
0000
0004
0250
END
00110
11500
0000
2000
END
0000
0100
11104
0000
END
01130
0020
0000
11000
END
01100
00110
0200
0100
END
3000
4004
0020
0000
END
0000
01140
4000
0400
END
5040
11000
0002
0000
END
0500
01100
0400
0000
END
0300
0400
3000
0500
END
0100
0005
01100
0005
END
00110
2021
0000
0000
END
5000
0020
0035
0000
END
0400
0000
3130
0000
END
5500
0004
00011
0000
END
0400
3000
0040
00110
END
0000
0010
0000
11400
END
11000
11100
0003
0000
END
0051
0002
0000
0000
END
0000
0400
11000
2040
END
0303
0000
0002
0200
END
0050
0000
3400
00011
END
0000
00110
5001
0000
END
0043
0000
0000
50011
END
0004
4010
0000
0000
END
0500
0050
0400
00011
END
0004
0000
5000
0110
END
3000
0300
0200
0002
END
5000
0020
0000
0100
END
0000
0500
01103
00110
END
00115
0000
01100
00110
END
0100
5000
0500
0000
END
0005
4000
0200
0002
END
0042
00011
0000
0400
END
0000
0440
0000
01150
END
4000
11020
1000
0000
END
0000
3005
0000
00110
END
0005
00114
0000
00110
END
0050
0000
0534
0000
END
00011
001111
0000
4000
END
0000
00110
0500
11040
END
0000
0005
0005
2000
END
4000
0040
0000
0400
END
0000
0000
0404
0040
END
00110
0305
0000
0040
END
01104
0000
0000
4500
END
0500
0003
0005
0005
END
11000
4000
0002
1000
END
0050
0000
01100
0045
END
0000
0000
5000
0024
END
01100
05011
0000
0050
END
0500
0000
00111
0000
END
2000
0300
0000
11000
END
0000
0000
4500
0040
END
4000
0000
00311
01100
END
5000
5000
5000
5000
END
0050
0300
11500
0000
END
2000
0000
5500
0200
END
0000
0001
11400
0000
END
0000
0400
112110
0000
END
5000
1000
0000
0005
END
11000
5002
0000
0010
END
4004
0000
5500
0000
END
0400
0000
0000
5025
END
0000
4000
01104
0005
END
0340
0503
0000
0000
END
00011
0000
4000
0500
END
0300
00110
0500
0003
END
0000
0000
0040
5040
END
2000
0000
0200
0005
END
4000
0000
0104
0005
END
0105
4000
0004
0000
END
0000
0304
0000
0405
END
0054
0000
0202
0000
END
0030
0000
0000
00115
END
00110
0020
0000
04011
END
0000
00110
0500
01011
END
0000
0554
0000
00110
END
2000
11000
04110
0000
END
0000
0544
11000
0000
END
0500
00110
0020
0040
END
0000
0300
5000
51100
END
5000
00511
0030
0000
END
0400
0000
4000
0530
END
0002
011011
00011
0000
END
0005
0000
0001
0400
END
00011
01100
0000
00211
END
0000
0100
2200
00011
END
01100
50110
0000
0004
END
0000
0050
11005
0100
END
0040
00110
0000
01150
END
0000
2000
0004
0505
END
00111
0000
0021
0000
END
0000
0001
02011
5000
END
0004
5000
11001
0000
END
0100
4000
1002
0000
END
0300
0000
11020
00110
END
0000
011011
0000
0004
END
00011
11000
0020
0500
END
111100
3000
11000
0000
END
01104
0000
0000
0055
END
01100
0000
0052
00011
END
00011
0500
0020
0010
END
00011
0005
5000
0040
END
0020
11040
0000
0030
END
0010
0050
4002
0000
END
0020
011110
0000
3000
END
0040
0500
0004
5000
END
53110
0500
0000
0000
END
0400
0000
0505
0000
END
00011
0000
01100
01100
END
051111
0100
0000
0000
END
0000
0520
0500
00110
END
0000
15011
0001
0000
END
2100
0000
0000
0100
END
0000
00112
0000
0305
END
00110
0000
11550
0000
END
00110
0000
0040
3500
END
5400
0000
0000
0500
END
4000
00110
0000
0050
END
3000
0002
0500
0000
END
0004
05011
4000
0000
END
0004
0010
0002
0100
END
00110
0000
01110
00011
END
1020
3000
0000
00011
END
3000
01100
0030
0000
END
5001
0030
0000
01100
END
0000
4030
50110
0000
END
01100
11000
0000
4500
END
01100
01100
0000
110011
END
00011
0040
11400
0000
END
00011
0003
0000
0004
END
0000
01100
41100
4000
END
0000
00011
0000
0550
END
11000
11000
0400
0005
END
0000
11000
0011
0020
END
00011
5020
1000
0000
END
0000
2500
111100
0000
END
5000
0004
0021
0000
END
0020
0004
0051
0000
END
0500
0040
0000
00115
END
1000
0005
0000
30110
END
0010
0000
0500
0051
END
0000
5405
0004
0000
END
0503
0000
0400
0000
END
0410
0300
0000
01100
END
0503
0000
0000
0003
END
0000
0050
0000
30311
END
0100
11000
0000
0230
END
0000
0000
5005
01150
END
0000
1005
11000
5000
END
00011
110011
00011
0000
END
00011
00011
0020
00110
END
0005
0000
0000
4302
END
0001
3002
0000
0040
END
0000
0000
0502
5000
END
0455
0000
2000
0000
END
0000
00110
0400
00311
END
0000
0000
10011
0041
END
01102
01100
0000
00011
END
0000
11000
0004
4050
END
0000
1400
0010
0004
END
01100
0000
0001
00311
END
00011
04110
0040
0000
END
0000
0000
41104
0002
END
011110
0000
4000
0000
END
0040
0000
2010
4000
END
0000
3250
00011
0000
END
0000
0010
0000
5501
END
0000
00110
00110
1002
END
0000
00110
1000
0200
END
00411
0000
0500
0000
END
25115
0000
0000
0000
END
0000
5104
0400
0000
END
0000
0050
01100
11050
END
0050
01100
0030
0400
END
0000
0000
02011
51100
END
0403
0500
0000
11000
END
50110
0000
0200
0004
END
51100
0001
0000
0003
END
0000
11440
0000
4000
END
0005
4000
0405
0000
END
0000
0003
0000
02211
END
0500
111100
0000
0000
END
5003
0000
0030
0000
END
0000
0030
0040
0055
END
00110
0000
11005
4000
END
0000
0004
5000
0004
END
0000
0050
0005
0201
END
0000
0000
3100
2500
END
0305
1000
01100
0000
END
0040
0000
0002
0450
END
0000
10110
0020
0002
END
0400
2000
0410
0000
END
0020
0002
0003
0000
END
01100
0000
0300
5003
END
0000
0050
4030
0050
END
0000
2100
0400
00011
END
0040
0000
4000
011110
END
10110
00110
0000
0000
END
0100
00011
0004
11000
END
0010
11500
0000
0000
END
00110
30112
0000
0000
END
0003
0020
0050
0300
END
0505
11000
0000
0300
END
0000
0000
01104
0034
END
0000
5030
20110
0000
END
00011
0000
04011
0002
END
0000
0000
1000
30411
END
0000
01011
11000
0400
END
0000
5000
0004
4400
END
0400
0054
0050
0000
END
0000
0005
0005
011110
END
0550
0000
0000
0103
END
01100
0002
5000
0005
END
0000
11000
0050
0400
END
3000
0000
0030
01104
END
01100
0100
1000
5000
END
0030
0000
50011
0040
END
0010
0030
0000
1100
END
2000
0005
11000
0040
END
4000
0000
4030
2000
END
11005
0000
0000
0004
END
3000
0400
0005
0010
END
4000
00011
5000
0000
END
2000
0300
0000
0305
END
0003
05110
0005
0000
END
1000
0040
01100
0050
END
0000
11100
0000
0005
END
0020
0400
11050
0000
END
0000
11000
5000
0500
END
0003
0050
0400
0002
END
0003
01100
01100
0004
END
0000
0200
0000
20114
END
0000
2000
0000
4050
END
0000
0005
0000
3040
END
0001
00011
5500
0000
END
04011
0000
0000
11005
END
0001
0040
0200
0040
END
3500
0000
0050
0000
END
0000
0040
4000
01100
END
5000
0000
01103
0050
END
0030
11005
0001
0000
END
00110
0105
0000
0000
END
0000
0002
011011
0000
END
00110
0100
0000
0040
END
00110
0400
0000
0400
END
01104
0000
0000
40110
END
0400
0000
0000
110011
END
0205
0300
0000
0400
END
5000
0000
0002
0200
END
00011
11000
3000
0050
END
41100
0000
00110
3000
END
0000
0003
51100
0500
END
1000
0030
0003
00011
END
04011
00110
00110
0000
END
00110
0004
5000
0020
END
0050
0000
0050
0004
END
4000
4004
2000
0000
END
3000
0000
0005
0100
END
0004
00011
0000
5100
END
0005
5000
0000
01100
END
20110
0002
0000
0040
END
0000
0400
0200
2002
END
0000
00115
0000
01150
END
0002
0000
0000
03411
END
0000
0000
0100
1003
END
4003
4000
0040
0000
END
4040
0300
0000
0040
END
0005
0003
0000
0031
END
0004
0000
11100
4000
END
0000
0000
11003
0500
END
1000
0000
01101
0000
END
0200
3003
5000
0000
END
0403
00110
0000
01100
END
0000
0000
11000
30113
END
0250
0000
0005
0040
END
0003
4001
0000
0010
END
0500
0001
11500
0000
END
0000
4005
0040
11000
END
0010
30110
0002
0000
END
0000
00511
11000
5000
END
0050
5000
5000
0000
END
0500
0500
0000
011011
END
0000
0505
0500
0000
END
0000
00110
11000
0054
END
0020
0000
2000
0020
END
0000
0000
0010
110110
END
40011
110110
0000
0000
END
00110
0001
0000
00111
END
04110
110011
0000
0000
END
0024
0050
11000
0000
END
0003
0000
0425
0000
END
0024
0000
3000
0000
END
0000
0505
0000
0001
END
0000
0340
10011
0000
END
4504
0000
0500
0000
END
0010
1403
0000
0000
END
2004
0000
0000
5500
END
4000
0010
00110
4000
END
2004
0030
01100
0000
END
0000
0400
0020
111100
END
0040
4000
2400
0000
END
0400
11005
0005
0000
END
4000
0100
0000
111100
END
03011
0000
0530
0000
END
0040
00311
00110
0000
END
0100
5000
0000
11100
END
0100
4000
0400
0300
END
3020
0000
00011
0010
END
0000
0020
1200
01100
END
0005
0400
0000
41100
END
0001
3000
01100
0000
END
0000
0005
00411
0020
END
00011
0000
5004
0040
END
0050
5005
0100
0000
END
0000
114110
0000
0030
END
0400
0002
0000
00011
END
110110
0005
0050
0000
END
110011
0000
0000
0501
END
3000
00311
0000
0040
END
4000
0000
3000
11400
END
0300
0100
0000
30110
END
3000
0000
0300
00011
END
0000
4005
0005
0004
END
00011
00011
0000
0550
END
0000
41100
0500
11000
END
0100
0050
0020
0000
END
0305
4000
0050
0000
END
0000
0000
0023
0500
END
01105
0400
0000
1000
END
0000
0500
0020
00111
END
0000
4400
110011
0000
END
0000
11004
5000
0002
END
0000
01100
0050
5300
END
0002
4005
0000
0040
END
0110
0000
0030
0004
END
0000
2000
0004
0041
END
4050
0000
0004
3000
END
11030
5400
0000
0000
END
0000
0500
0005
01102
END
1000
01105
0000
0500
END
4001
0000
0300
11000
END
01100
0000
0000
4050
END
11000
5000
0000
40110
END
0000
0000
0000
04113
END
0510
5000
0000
0000
END
4000
0400
11000
3000
END
5004
0040
0010
0000
END
0030
4305
0000
0000
END
21140
0500
0000
0000
END
0002
0000
011110
1000
END
0000
0000
5004
02011
END
0000
5100
4000
1000
END
4400
0000
5000
5000
END
0400
0000
0015
00110
END
0000
0003
11205
0000
END
0500
4000
2000
3000
END
4000
0305
0100
0000
END
0000
00011
0020
0020
END
1005
3000
0000
00011
END
0002
01100
2000
0050
END
0000
4002
0003
01100
END
0001
0000
0020
00411
END
0200
11050
0001
0000
END
0000
0020
0200
4020
END
11003
00011
3000
0000
END
4022
0000
0000
3000
END
20110
0003
0030
0000
END
5400
11000
0000
5000
END
0040
0000
0052
00011
END
11005
0000
5000
11000
END
00011
01100
0001
0005
END
0000
110011
0020
5000
END
00011
0000
5004
5000
END
01145
01100
0000
0000
END
011112
0000
0000
0000
END
0111111
01100
0000
0000
END
01145
0000
0040
0000
END
5003
0000
00011
0100
END
0005
0000
0000
01135
END
20113
5000
0000
0000
END
0304
0000
0004
2000
END
0000
0200
11140
0000
END
0000
11402
0000
0040
END
0501
0000
0002
00110
END
4000
0000
01100
0400
END
0040
0500
00114
0000
END
0010
2000
0050
0500
END
1000
0000
11000
5004
END
5000
0000
0030
10011
END
0000
0000
0004
20110
END
01011
0000
00011
0200
END
0000
011011
0003
01100
END
1000
0400
0034
0000
END
0004
0000
5300
1000
END
0000
00110
00110
11010
END
5000
0040
0000
40110
END
0400
11000
0030
00011
END
4004
1000
0000
0050
END
0000
11000
0002
4005
END
11300
0000
0500
0020
END
5000
0500
11000
00110
END
4000
41100
0001
0000
END
00011
0500
0000
0020
END
03011
0005
0500
0000
END
0000
2000
11000
10110
END
0000
00011
11002
00110
END
0004
01100
5000
4000
END
0010
0500
0200
0400
END
211011
0000
0010
0000
END
0350
11000
00011
0000
END
00110
0005
5020
0000
END
111100
0000
0000
3100
END
01102
0000
0040
0004
END
0005
0000
0403
0005
END
0030
5000
0000
04110
END
0050
0055
1000
0000
END
0400
0000
4200
11000
END
0001
0400
0500
1000
END
0000
0050
0020
2200
END
00110
2000
0000
11400
END
0100
0400
0000
11030
END
0000
2000
4010
0000
END
00110
0000
11000
03110
END
0005
3000
00011
0002
END
0000
0100
01104
00110
END
2001
00114
0000
0000
END
011011
00011
00011
0000
END
5005
1000
0005
0000
END
0000
0030
4000
3005
END
5050
4000
11000
0000
END
0500
02011
4000
0000
END
0050
00110
0002
0004
END
0040
0100
0040
0030
END
5000
0000
0000
0410
END
0000
4000
11000
05011
END
0000
0040
3000
5000
END
0040
0000
0000
0501
END
0040
0030
0000
00011
END
50110
11000
0000
0400
END
0005
0000
4000
11000
END
11000
0500
01100
0500
END
1000
1500
0005
0000
END
0000
03011
0000
01110
END
0000
4000
0000
011211
END
0054
0050
0005
0000
END
0000
0000
0030
0051
END
0050
0000
0000
11340
END
01130
0000
01100
00110
END
0000
04113
0002
0000
END
0000
0002
02011
01100
END
4000
01100
0005
4000
END
0050
11000
03011
0000
END
0500
0004
4000
0050
END
11000
0000
5000
0004
END
0004
0000
5500
0000
END
4400
0040
3000
0000
END
0440
00011
0005
0000
END
0052
0000
01100
0000
END
0000
0500
5020
0050
END
11000
0001
3000
11000
END
3000
0205
0000
0100
END
00011
0000
0005
2400
END
0000
0002
21100
0005
END
0200
0000
0502
11000
END
0400
0501
00110
0000
END
0000
0300
0001
01100
END
01100
0000
11000
5200
END
0200
01100
01102
0000
END
0400
0010
0000
0205
END
01110
0000
0000
011011
END
5400
0000
0000
00111
END
0200
00011
0000
10011
END
0050
0100
00110
4000
END
4000
0000
00110
00011
END
11000
5005
0300
0000
END
0540
0000
0003
0002
END
0000
1100
0000
11100
END
00110
0003
0004
00011
END
0200
3540
0000
0000
END
0200
1005
0002
0000
END
0000
111100
0000
0001
END
0000
0050
03011
4000
END
01104
0100
0000
01100
END
4010
00011
5000
0000
END
0000
00110
30110
0001
END
0300
5004
0000
0040
END
00011
4001
0000
4000
END
00110
1000
4400
0000
END
00110
0000
111100
4000
END
0000
0020
00110
00011
END
0040
4000
0043
0000
END
0001
01100
0000
0032
END
0000
11000
0004
5003
END
0000
0005
0000
11010
END
00110
0050
0400
0005
END
4000
0300
0050
0300
END
0504
0000
0010
0400
END
11000
00211
0000
0000
END
01140
0000
0400
5000
END
00110
0000
0350
0050
END
01100
0000
11002
0400
END
0000
51100
0000
10011
END
2500
0000
0300
0001
END
00110
0004
1500
0000
END
0000
0002
0310
0300
END
0400
0000
0500
11000
END
0004
0000
41100
0100
END
0300
0050
2000
00011
END
0004
0005
0043
0000
END
4540
0000
0000
3000
END
11001
0000
0003
0000
END
11000
0024
0000
0000
END
0000
54110
0000
0000
END
0400
5000
0000
110110
END
11000
0000
0140
0000
END
0200
4000
0500
0400
END
00110
0000
30011
0000
END
4000
0004
0000
0030
END
0005
0040
2000
5000
END
0040
0004
0050
0002
END
0005
30011
5000
0000
END
0000
110011
01105
0000
END
0004
0003
11000
0040
END
3000
1000
00110
0040
END
0040
0400
0040
5000
END
01102
0004
0200
0000
END
30110
0000
2004
0000
END
0000
0002
0040
01104
END
0000
0500
0500
4004
END
0000
4000
3400
0000
END
00011
01100
3000
01100
END
0000
0050
113011
0000
END
01100
2000
0000
41100
END
0000
5030
0100
0050
END
3000
0000
0000
0204
END
0000
0203
4000
0001
END
50110
11000
3000
0000
END
0400
4000
4010
0000
END
0504
01100
0000
0400
END
0000
0000
20011
11400
END
1005
0050
0000
00110
END
0000
0004
0205
00110
END
0050
3540
0000
0000
END
2050
0003
11000
0000
END
0000
3400
0420
0000
END
0050
0000
0400
0140
END
5000
0010
0000
11004
END
4000
0301
0000
11000
END
11000
0000
0000
4300
END
00011
0000
1000
01110
END
2000
4000
0000
0055
END
0000
01101
01100
01100
END
00011
0030
0000
0440
END
0040
0500
0100
01100
END
0000
0004
0000
30114
END
0005
0000
3000
5400
END
0000
01100
0400
0305
END
1020
0040
0000
0030
END
0200
0020
01100
0000
END
0000
54110
00011
0000
END
0040
3300
0000
01100
END
00011
2000
11300
0000
END
0000
0001
31100
0020
END
3000
00114
0000
0040
END
0000
0000
11050
001111
END
00115
1000
11000
0000
END
0010
4000
11000
0400
END
0500
0030
0000
00011
END
0340
0000
0500
0000
END
0103
0000
0330
0000
END
00011
11000
0100
01100
END
0000
0100
0003
0105
END
5000
0000
01100
3030
END
01100
0000
20110
0000
END
11000
0005
0000
03011
END
0005
0040
00011
0000
END
0000
0040
01100
0504
END
0440
11000
0000
0000
END
0002
0000
0010
3000
END
4000
0120
0100
0000
END
0000
4500
0000
0003
END
0150
01150
0000
0000
END
00110
0000
00110
0500
END
0200
0000
0000
111100
END
11000
0500
00011
2000
END
0004
0000
0040
0004
END
11000
01101
4000
0000
END
01011
0003
0001
0000
END
0000
0100
0200
01011
END
0000
11000
20011
0002
END
0000
01100
0000
110011
END
0000
00011
4100
0040
END
0002
0010
0000
05011
END
0400
0000
00110
3010
END
0420
0010
0000
11000
END
0001
0000
00110
11000
END
11000
0000
00011
11003
END
11000
0020
0000
0040
END
0000
0000
1000
0210
END
0400
0004
0040
0400
END
0000
1000
41100
4000
END
01100
2005
0000
01100
END
5000
11004
0400
0000
END
0012
0000
00011
0005
END
0400
0000
5000
5000
END
0000
11020
0000
0005
END
0000
0040
01100
011011
END
0000
2400
0020
0020
END
0050
00511
0000
00110
END
0040
0000
0004
5040
END
01100
0000
011011
0000
END
0000
00411
0000
0055
END
1000
0050
0410
0000
END
0005
3050
0000
4000
END
0010
0000
0454
0000
END
11404
0000
0100
0000
END
5000
0300
0003
0000
END
0000
50110
0003
3000
END
5000
11000
1000
0050
END
3000
0000
4400
0040
END
0000
4000
20011
0050
END
0000
0030
0100
111100
END
4000
4000
0005
0040
END
1000
0040
0000
0005
END
110110
0000
0010
0010
END
50011
0000
5040
0000
END
0003
00011
5000
0400
END
0004
2000
3000
00011
END
0000
0003
0300
0051
END
10110
40110
0000
0000
END
4503
0000
0000
0400
END
00110
0100
4000
0000
END
0030
0040
0004
0500
END
0000
2000
2050
0000
END
0040
0000
110011
0040
END
0000
0000
55011
0300
END
5000
0000
0300
0520
END
01105
00110
0003
0000
END
0500
011110
2000
0000
END
00011
0000
00110
0040
END
0000
0000
11410
11000
END
01100
0000
0050
40110
END
51100
4000
0005
0000
END
0050
0000
11000
4005
END
0000
0000
0304
001111
END
0000
0000
04011
00111
END
00110
0001
01100
4000
END
0040
0000
3000
0201
END
0000
04114
0000
0500
END
0002
01100
0500
0004
END
0500
0000
0030
111100
END
0005
0000
0004
01104
END
01140
5000
2000
0000
END
0000
0000
0040
0424
END
110011
0400
0005
0000
END
0000
01100
011110
00110
END
5004
0000
0300
00110
END
0000
3001
0000
0010
END
0000
01100
0005
11010
END
00011
0000
0045
2000
END
0000
01100
01120
3000
END
11000
0000
0000
1111011
END
0400
0100
0005
0000
END
0000
0005
0210
0050
END
0000
0040
0405
00011
END
00411
0010
0000
0000
END
0000
0000
5030
50110
END
0000
0040
11000
00011
END
0000
0140
0002
1000
END
0050
0200
00110
0005
END
4000
2003
0100
0000
END
00011
0402
1000
0000
END
5300
0000
01100
0400
END
0000
00114
00110
0500
END
0010
0024
0000
4000
END
30110
0000
0000
05011
END
03110
0030
0050
0000
END
0010
0503
0000
11000
END
0001
01101
0000
0004
END
00110
03011
0004
0000
END
5000
0200
50011
0000
END
3000
0000
00110
110011
END
41100
0050
0000
0000
END
00411
0000
0000
01105
END
0010
00110
5000
0500
END
0010
1320
0000
0000
END
0050
0400
0100
0002
END
11030
0400
0200
0000
END
0030
00411
0000
0000
END
0000
5005
0000
0034
END
00011
5000
0020
00011
END
0040
4000
0000
4010
END
00110
0300
5000
5000
END
0001
0003
0000
011011
END
3000
0001
0000
0030
END
0000
0000
1020
50011
END
0040
5400
0020
0000
END
0000
0000
4000
110115
END
0200
0000
0450
0010
END
4000
110011
0001
0000
END
0000
4000
0000
03511
END
0020
0100
2000
0000
END
3000
2000
0450
0000
END
11200
0000
0000
0040
END
0004
0400
01100
00011
END
00110
11000
4000
0000
END
01100
0001
5000
0400
END
0004
00011
0050
00110
END
0000
0040
3500
0200
END
0050
0000
0034
00110
END
1000
00011
0510
0000
END
0000
0050
11000
01100
END
0204
0000
110110
0000
END
11500
00110
0000
0000
END
0000
0000
0100
111101
END
11004
11000
0000
0003
END
0210
0000
0000
0305
END
1000
0020
01100
0005
END
0000
11200
0030
0200
END
0050
00011
0000
0030
END
03110
0100
0000
0200
END
01100
0030
3050
0000
END
00011
0004
0000
05011
END
4000
0500
0001
0000
END
0000
011011
0000
0400
END
40011
3000
0000
0040
END
0000
0400
11000
0500
END
0050
0050
0004
01100
END
0000
0005
0150
0020
END
00110
0030
11000
0000
END
0000
25011
0003
0000
END
00011
0005
2300
0000
END
0300
00011
0500
11000
END
0002
0005
0020
0000
END
0002
0000
11103
0000
END
0000
0000
4400
05110
END
0520
0000
00011
5000
END
5000
0000
011011
0050
END
01150
0004
0000
0400
END
0000
5005
11000
0500
END
0004
0000
0004
3000
END
0000
0100
0040
0504
END
0320
0004
0000
0040
END
110111
0000
0004
0000
END
1000
0000
110115
0000
END
0000
00110
0504
0002
END
00110
0500
0004
1000
END
0000
4000
14110
0000
END
11000
0040
0350
0000
END
0000
4000
0000
4104
END
0000
0005
3300
0040
END
0001
0005
0050
0050
END
0000
0002
0000
40110
END
0000
1000
40011
0000
END
0005
0050
0002
0010
END
0404
0002
0010
0000
END
5000
5000
0001
01100
END
0045
5000
0000
0050
END
41105
0000
4000
0000
END
5400
0000
11000
0040
END
1300
0000
0000
01120
END
0040
0000
0000
0550
END
0000
211011
00011
0000
END
0000
00110
0000
1504
END
40011
0040
0000
0000
END
0000
0034
0000
1005
END
00110
00311
00011
0000
END
0002
0400
0000
0501
END
2000
0010
0040
0000
END
01103
0000
0200
0000
END
0000
0000
41115
0000
END
0000
0045
4000
3000
END
0000
0000
0015
1500
END
11000
0000
1000
00110
END
0000
1000
00114
0002
END
0000
0005
11000
1100
END
0002
4402
0000
0000
END
011110
0040
0000
0040
END
11000
0005
0000
0005
END
0050
3400
0000
00011
END
00110
0000
41100
0000
END
0000
0500
0000
50110
END
0000
011110
0000
0402
END
0004
4000
0000
0005
END
0000
30011
00110
0000
END
0000
00110
0304
0000
END
0000
5055
0200
0000
END
0000
0200
0000
0025
END
00112
0040
0000
0020
END
40011
0000
5000
0005
END
0000
01150
5100
0000
END
5000
01100
0400
2000
END
0005
00011
0001
0040
END
0001
0000
0000
4340
END
0050
01100
0000
0504
END
01100
0050
0000
0002
END
00411
0000
00011
0040
END
0040
0005
4000
01100
END
0005
0040
0000
2000
END
00110
00110
2000
5000
END
0003
4050
00011
0000
END
0502
0050
00011
0000
END
2000
4050
0002
0000
END
2010
0000
01105
0000
END
0000
0010
4000
0504
END
5500
5050
0000
0000
END
0030
0020
00011
4000
END
11030
0000
011011
0000
END
0200
01100
5040
0000
END
4003
01140
0000
0000
END
1000
00110
4000
0400
END
0000
0500
11040
0010
END
00114
11000
0000
0000
END
0050
0004
0020
0000
END
00011
0000
0000
0510
END
4000
11000
0030
0200
END
0005
0000
3000
1400
END
0050
0001
00110
0001
END
0000
0005
0200
0204
END
0000
0050
00011
11500
END
0004
0001
0450
0000
END
0000
4000
0050
00011
END
2000
0000
0000
50110
END
001111
0000
0050
5000
END
0000
0200
0030
0530
END
50011
0000
4000
1000
END
0050
5000
0200
4000
END
0000
0000
0010
11015
END
0200
2300
0000
11000
END
0000
31100
0002
0050
END
0440
2400
0000
0000
END
01100
3000
00110
1000
END
0034
0000
11000
0400
END
4000
0010
0005
0050
END
01100
0050
0010
5000
END
01100
11050
0300
0000
END
