8 0
12 1
4 1
6 1
10 1
14 2
11 3
7 1
14 1
2 2
5 0
9 2
11 1
13 1
13 1
12 0
11 1
10 0
10 2
9 1
11 0
11 3
9 2
10 0
14 1
7 0
1 1
2 0
1 2
4 2
4 0
7 2
1 1
8 0
3 0
2 3
3 3
11 3
9 1
10 3
7 0
6 1
7 3
11 3
5 2
3 2
6 3
5 2
8 2
15 1
11 3
8 0
10 2
9 1
7 3
5 1
5 2
5 2
4 2
7 1
6 0
12 0
5 3
3 1
2 1
4 0
9 1
9 3
8 0
0 2
4 2
3 1
6 2
9 3
8 0
8 0
10 2
14 1
4 0
3 1
5 2
7 1
0 1
5 0
2 1
14 0
2 3
4 1
14 3
8 0
8 2
15 0
4 3
12 1
8 0
4 1
1 0
3 1
7 1
8 1
10 0
7 1
10 1
12 0
12 3
6 1
3 3
3 3
5 2
12 0
10 1
12 1
9 1
14 3
11 2
12 3
11 3
10 3
5 3
10 2
4 2
6 0
3 3
7 2
10 1
9 1
7 1
3 3
14 2
9 2
12 1
12 1
12 2
15 3
8 0
10 1
12 2
13 3
13 2
10 2
11 1
9 1
11 2
11 3
8 3
11 2
10 1
11 3
9 1
4 1
6 1
5 3
4 1
6 3
7 3
12 2
6 2
9 3
8 2
5 0
8 3
9 0
10 1
11 1
6 3
2 3
0 3
1 2
8 3
4 2
10 2
15 0
15 1
7 2
10 2
6 3
8 3
7 1
7 3
8 3
9 2
5 0
10 1
9 2
14 0
14 1
11 0
11 0
13 1
12 1
12 0
14 0
7 0
7 0
5 3
8 2
1 0
2 2
0 1
10 0
9 0
5 0
6 3
12 3
7 3
11 3
6 1
5 2
6 2
10 3
14 0
15 2
12 1
9 2
0 0
10 1
5 2
7 0
9 2
8 1
6 2
3 0
9 3
10 3
13 3
12 2
11 3
8 0
15 0
8 3
12 3
4 3
2 0
4 0
12 0
10 1
1 0
1 0
2 3
1 1
1 2
4 0
4 0
10 0
7 1
12 3
12 2
5 2
5 3
3 2
2 3
8 0
5 1
6 2
5 2
6 0
8 2
11 3
9 3
12 2
6 3
8 0
9 3
2 1
4 2
6 1
8 2
3 0
6 3
8 1
6 1
11 2
4 1
8 2
7 0
7 3
9 2
8 0
7 3
5 0
12 3
9 3
10 3
4 2
6 3
5 2
3 0
13 3
0 1
11 0
7 0
10 3
10 1
12 0
7 3
6 2
14 3
14 0
3 1
9 1
15 2
3 2
8 2
14 1
15 2
15 1
15 2
12 1
13 0
9 2
14 3
13 0
10 1
7 3
4 1
5 0
0 0
1 3
6 0
3 2
14 2
11 2
13 0
11 2
15 3
11 2
15 0
15 0
10 1
9 3
13 0
11 1
11 3
14 3
15 1
9 1
8 2
5 3
2 2
11 0
8 3
14 2
8 1
11 0
15 0
9 2
13 3
13 1
9 1
7 2
12 2
4 3
7 2
8 3
9 0
7 1
4 0
1 0
3 1
9 3
6 3
7 1
6 3
7 0
0 0
7 3
6 0
5 1
7 1
0 2
4 2
4 3
5 1
5 3
3 3
1 2
4 0
0 3
1 3
3 2
1 0
4 3
6 0
6 2
3 2
2 0
2 3
8 3
5 0
6 2
1 3
2 1
10 0
11 2
12 1
10 2
12 2
11 2
13 2
15 1
13 1
12 3
11 3
13 2
11 3
10 1
15 2
0 3
1 1
0 0
5 1
2 2
3 0
3 2
4 1
2 1
7 0
5 2
1 1
5 3
4 2
3 3
9 1
1 0
6 0
6 0
9 3
6 3
0 3
10 1
10 3
13 2
14 2
10 3
12 2
13 2
14 3
12 1
12 0
12 3
14 2
15 1
10 1
15 3
8 2
2 0
2 3
5 1
4 0
5 3
7 1
6 1
2 3
6 1
3 1
3 2
3 3
3 1
4 1
3 0
5 1
7 1
1 0
7 2
1 0
2 3
2 1
1 0
10 0
14 0
10 1
10 0
15 1
10 0
14 0
15 0
14 2
15 3
10 3
10 0
15 1
15 3
14 1
10 1
10 1
12 1
10 0
11 0
4 1
4 0
6 3
5 2
6 3
5 2
5 0
4 1
0 0
2 3
4 3
5 1
6 0
4 2
7 0
0 0
3 2
1 2
3 2
3 0
5 2
1 2
6 3
1 0
0 2
10 3
10 3
10 2
10 1
14 3
14 1
12 2
14 2
13 2
16 3
15 0
3 1
7 3
5 3
5 3
1 2
2 1
9 0
7 3
7 3
8 2
4 0
9 1
6 2
4 2
7 2
7 3
1 3
8 2
1 0
3 3
2 0
2 2
2 0
8 0
0 1
15 2
11 1
10 2
10 3
10 3
10 3
13 0
13 1
14 0
15 1
10 2
13 2
14 0
11 0
8 0
6 2
4 0
3 3
5 2
7 2
7 1
9 3
9 1
0 3
5 3
2 1
9 0
6 0
5 1
5 0
4 2
5 1
2 3
6 0
4 2
6 0
2 1
7 2
1 1
10 1
12 1
10 0
12 2
10 2
10 1
12 3
15 2
12 2
11 2
13 3
12 2
13 1
4 1
8 0
4 3
9 1
3 2
4 1
5 1
3 1
6 2
7 2
6 2
5 1
9 0
1 0
7 2
1 3
6 3
5 1
4 1
9 3
1 0
4 2
4 3
1 3
2 3
0 1
12 1
10 1
11 1
15 3
10 0
15 1
14 3
13 2
10 1
12 0
14 1
12 3
12 3
2 2
3 1
2 3
4 3
6 3
3 1
5 0
7 3
7 1
5 1
7 0
7 0
2 2
8 0
4 1
9 0
9 1
8 0
3 0
0 0
11 1
12 3
10 1
14 3
14 2
13 0
15 2
13 0
13 1
13 0
14 0
14 0
14 3
1 3
6 3
8 0
6 1
7 1
5 3
9 2
9 2
1 0
9 0
9 1
2 0
8 0
2 0
3 1
8 3
7 3
3 0
0 2
15 1
10 0
10 3
10 1
13 0
10 1
13 0
10 1
11 2
15 1
14 3
13 3
15 0
10 0
13 1
4 1
1 2
6 1
9 1
5 3
5 1
5 3
7 2
3 2
4 3
3 1
5 1
2 2
7 3
8 3
5 2
1 2
5 2
3 0
0 2
8 0
9 3
2 0
0 1
10 0
11 3
11 2
10 2
10 0
13 3
11 1
15 2
12 0
15 0
15 3
15 1
15 0
5 1
7 0
6 2
8 0
9 2
4 0
9 2
2 2
4 2
7 1
9 3
6 0
7 0
5 1
3 0
3 1
1 0
4 3
5 3
2 2
12 3
12 0
10 1
13 2
15 3
12 1
13 2
15 0
15 2
13 2
15 1
10 2
10 3
14 2
7 2
6 1
3 2
9 2
9 0
1 3
8 2
7 0
3 0
3 2
4 2
3 2
7 1
0 1
5 0
4 0
8 3
1 0
9 0
9 2
7 2
3 0
8 0
6 0
0 0
12 3
10 2
10 2
15 0
10 1
10 1
13 0
14 2
13 2
14 3
12 2
10 2
12 2
14 3
13 1
5 0
4 1
7 2
7 3
5 0
4 1
4 2
8 3
0 0
3 0
9 2
5 3
3 1
3 1
4 2
0 0
4 0
3 1
8 0
9 1
6 2
8 0
3 2
6 2
9 2
1 0
13 1
11 2
10 0
12 1
10 0
10 3
12 1
10 0
12 2
14 3
10 3
14 1
11 2
10 3
11 2
5 2
3 0
7 3
6 1
5 1
5 3
3 1
5 0
6 0
7 0
3 3
2 2
1 1
4 1
7 3
6 1
0 0
2 1
14 2
11 1
10 1
10 2
11 1
10 1
15 2
13 1
11 1
15 2
11 3
10 1
4 3
6 1
7 0
8 3
4 2
2 2
5 2
7 1
8 3
2 1
5 2
2 1
8 3
8 1
0 0
4 2
5 2
3 1
3 0
1 1
2 3
2 1
2 0
0 0
2 0
0 0
14 0
14 2
11 0
11 1
14 2
14 1
12 3
12 0
10 3
15 0
10 2
11 0
12 0
1 0
4 2
3 1
7 2
6 1
6 3
6 2
5 1
9 0
7 1
9 3
5 3
5 0
9 0
7 2
4 0
4 3
5 3
2 1
4 3
4 2
4 0
9 1
2 1
6 0
0 3
10 1
15 2
10 0
13 2
10 2
11 0
13 3
14 1
15 1
15 1
10 3
13 3
1 0
2 1
5 1
4 2
5 2
5 3
9 2
4 2
9 1
7 3
9 2
4 1
6 0
8 1
6 1
2 1
9 3
2 3
7 3
4 0
2 0
1 3
